<?xml version="1.0" encoding="utf-8"?>
<!-- Generator: Adobe Illustrator 24.1.3, SVG Export Plug-In . SVG Version: 6.00 Build 0)  -->
<svg version="1.1" xmlns="http://www.w3.org/2000/svg" xmlns:xlink="http://www.w3.org/1999/xlink" x="0px" y="0px"
	 viewBox="0 0 3000 1162.14" style="enable-background:new 0 0 3000 1162.14;" xml:space="preserve">
<style type="text/css">
	.st0{fill:#CFB8E7;}
	.st1{fill:#63FED3;}
	.st2{fill:#54E2CB;}
	.st3{fill:#41BDC1;}
	.st4{fill:#56E6CC;}
	.st5{fill:#D83F5D;}
	.st6{fill:#52DDCA;}
	.st7{fill:#50D9C9;}
	.st8{fill:#4ED5C8;}
	.st9{fill:#4CD1C7;}
	.st10{fill:#4ACDC6;}
	.st11{fill:#48CAC5;}
	.st12{fill:#47C8C4;}
	.st13{fill:#39AEBD;}
	.st14{fill:#5AEDCE;}
	.st15{fill:#45C4C3;}
	.st16{fill:#CA3D74;}
	.st17{fill:#38ABBC;}
	.st18{fill:#43C0C2;}
	.st19{fill:#5CF1CF;}
	.st20{fill:#FECD74;}
	.st21{fill:#FEB975;}
	.st22{fill:#BC3B8B;}
	.st23{fill:#B73A92;}
	.st24{fill:#FEAE75;}
	.st25{fill:#3EB7BF;}
	.st26{fill:#34A3BA;}
	.st27{fill:#51DBC9;}
	.st28{fill:#53DFCB;}
	.st29{fill:#5FF6D1;}
	.st30{fill:#3DB5BF;}
	.st31{fill:#AC38A4;}
	.st32{fill:#4ED7C8;}
	.st33{fill:#32A0B9;}
	.st34{fill:#3BB1BE;}
	.st35{fill:#4DD4C7;}
	.st36{fill:#A5EAA5;}
	.st37{fill:#61FAD2;}
	.st38{fill:#4BD0C6;}
	.st39{fill:#57E8CD;}
	.st40{fill:#49CCC5;}
	.st41{fill:#FEC774;}
	.st42{fill:#58E9CD;}
	.st43{fill:#37A8BB;}
	.st44{fill:#59EBCE;}
	.st45{fill:#46C6C3;}
	.st46{fill:#FEA776;}
	.st47{fill:#FEAA75;}
	.st48{fill:#BDF4A2;}
	.st49{fill:#44C2C2;}
	.st50{fill:#DC4058;}
	.st51{fill:#FEA176;}
	.st52{fill:#5BEFCF;}
	.st53{fill:#FEC974;}
	.st54{fill:#E04052;}
	.st55{fill:#B5F1A3;}
	.st56{fill:#C8F9A1;}
	.st57{fill:#5DF3D0;}
	.st58{fill:#40BAC0;}
	.st59{fill:#3FB9C0;}
	.st60{fill:#5EF4D0;}
	.st61{fill:#319DB9;}
	.st62{fill:#D53F63;}
	.st63{fill:#2A91B5;}
	.st64{fill:#FEC474;}
	.st65{fill:#FEBC75;}
	.st66{fill:#B9F2A3;}
	.st67{fill:#D33E66;}
	.st68{fill:#C0F5A2;}
	.st69{fill:#3CB2BE;}
	.st70{fill:#298EB4;}
	.st71{fill:#FEB475;}
	.st72{fill:#FE9B76;}
	.st73{fill:#2F9AB7;}
	.st74{fill:#60F8D1;}
	.st75{fill:#D03E6B;}
	.st76{fill:#2E98B7;}
	.st77{fill:#FEA476;}
	.st78{fill:#62FCD3;}
	.st79{fill:#AFEEA4;}
	.st80{fill:#2D95B6;}
	.st81{fill:#FECF74;}
	.st82{fill:#FE9E76;}
	.st83{fill:#ACEDA4;}
	.st84{fill:#C83D78;}
	.st85{fill:#278BB3;}
	.st86{fill:#2C93B6;}
	.st87{fill:#36A7BB;}
	.st88{fill:#C63C7B;}
	.st89{fill:#B23999;}
	.st90{fill:#35A5BB;}
	.st91{fill:#2688B3;}
	.st92{fill:#C43C7E;}
	.st93{fill:#E2414E;}
	.st94{fill:#C3F6A2;}
	.st95{fill:#2382B1;}
	.st96{fill:#E64147;}
	.st97{fill:#A0E8A5;}
	.st98{fill:#C23C81;}
	.st99{fill:#D13E69;}
	.st100{fill:#C5F7A2;}
	.st101{fill:#BF3B86;}
	.st102{fill:#FEC275;}
	.st103{fill:#2485B2;}
	.st104{fill:#98E4A6;}
	.st105{fill:#FEC175;}
	.st106{fill:#CD3D6F;}
	.st107{fill:#FEBE75;}
	.st108{fill:#B2EFA3;}
	.st109{fill:#92E2A6;}
	.st110{fill:#309CB8;}
	.st111{fill:#FEB675;}
	.st112{fill:#9C36BE;}
	.st113{fill:#FEB275;}
	.st114{fill:#E4414B;}
	.st115{fill:#8FE0A7;}
	.st116{fill:#FEB075;}
	.st117{fill:#A738AB;}
	.st118{fill:#A9EBA4;}
	.st119{fill:#A337B0;}
	.st120{fill:#B0399C;}
	.st121{fill:#1D76AE;}
	.st122{fill:#79D6A9;}
	.st123{fill:#62CCAB;}
	.st124{fill:#6DD1AA;}
	.st125{fill:#1F7BAF;}
	.st126{fill:#84DCA8;}
	.st127{fill:#9DE6A5;}
	.st128{fill:#9BE5A6;}
	.st129{fill:#C03B84;}
	.st130{fill:#FE9876;}
	.st131{fill:#68CFAA;}
	.st132{fill:#2180B0;}
	.st133{fill:#74D4A9;}
	.st134{fill:#DE4054;}
	.st135{fill:#EA4241;}
	.st136{fill:#7FD9A8;}
	.st137{fill:#DD4055;}
	.st138{fill:#95E3A6;}
	.st139{fill:#A036B6;}
	.st140{fill:#FE9676;}
	.st141{fill:#CE3E6D;}
	.st142{fill:#8CDFA7;}
	.st143{fill:#89DEA7;}
	.st144{fill:#87DDA7;}
	.st145{fill:#5CCAAC;}
	.st146{fill:#82DAA8;}
	.st147{fill:#56C7AC;}
	.st148{fill:#7CD8A8;}
	.st149{fill:#71D3AA;}
	.st150{fill:#49C1AD;}
	.st151{fill:#51C4AC;}
	.st152{fill:#FE9375;}
	.st153{fill:#4DC4AD;}
	.st154{fill:#D5FEA0;}
	.st155{fill:#D3FDA0;}
	.st156{fill:#CEFBA1;}
	.st157{fill:#D1FCA0;}
	.st158{fill:#CBFAA1;}
	.st159{fill:#E84144;}
	.st160{fill:#540D6F;}
</style>
<g id="Layer_3">
	<path class="st0" d="M195.1,1012.51h2609.8c29.18,0,53.06-23.88,53.06-53.06V142.29c0-29.18-23.88-53.06-53.06-53.06H195.1
		c-29.18,0-53.06,23.88-53.06,53.06v817.17C142.04,988.64,165.92,1012.51,195.1,1012.51z"/>
</g>
<g id="Layer_5">
	<g>
		<path class="st1" d="M329.46,871.61c-11.73-3.88-19.7-14.62-19.86-28.97c-0.36-32.54-0.09-65.1-0.08-97.64
			c1.92-2.52,4.79-3.14,7.62-3.86c54.52-13.82,108.88-28.28,163.39-42.18c5.21-1.33,10.37-2.84,15.58-4.19
			c2.54-0.65,5.22-1.76,7.64,0.44c1.18,2.37-0.31,3.98-1.61,5.65c-7.81,7.7-15.55,15.49-23.28,23.28
			c-5.05,4.86-9.94,9.87-14.88,14.85c-3.28,3.15-6.48,6.38-9.64,9.66c-10.31,10.21-20.54,20.51-30.77,30.8
			c-5.51,5.32-10.87,10.79-16.25,16.24c-5.92,5.77-11.72,11.65-17.53,17.54c-5.94,5.8-11.79,11.7-17.6,17.63
			c-11.99,11.83-23.81,23.82-35.76,35.7C334.36,868.57,332.5,870.91,329.46,871.61z"/>
		<path class="st2" d="M309.52,651.97c0-4.94,0-9.89,0-14.83c1.92-2.53,4.8-3.13,7.63-3.86c37.12-9.6,74.24-19.21,111.37-28.81
			c70.55-18.25,141.1-36.53,211.62-54.9c2.95-0.77,5.99-2.29,9.04-0.18c1.74,3.15-0.7,4.92-2.41,6.77
			c-3.28,3.55-6.8,6.87-10.17,10.34c-2.58,2.21-4.58,5.37-8.55,5.39c-16.84,2.82-33.11,7.98-49.59,12.22
			c-27.8,7.15-55.56,14.45-83.36,21.62c-59.29,15.29-118.49,30.93-177.85,45.91C314.71,652.28,312.17,653.87,309.52,651.97z"/>
		<path class="st3" d="M309.52,511.77c0-4.94,0-9.89,0-14.83c1.94-2.11,4.57-2.72,7.19-3.4c46.69-12.21,93.44-24.17,140.14-36.33
			c30.63-7.97,61.22-16.11,91.94-23.72c2.63-0.65,5.15-1.56,7.58-2.74c5.21-0.98,6.95,3.79,10.18,6.12
			c1.76,2.15,4.43,3.87,3.47,7.31c-2.47,3.44-6.42,3.93-10.06,4.86c-36.34,9.28-72.6,18.86-108.93,28.2
			c-43.94,11.3-87.81,22.85-131.79,33.97C316.1,512,312.88,513.88,309.52,511.77z"/>
		<path class="st4" d="M309.52,651.97c37.19-9.63,74.39-19.24,111.58-28.89c67.25-17.45,134.49-34.92,201.72-52.41
			c2.16-0.56,4.24-1.82,6.15,0.44c0.85,2.22-0.93,3.33-1.97,4.76c-2.83,2.78-5.61,5.61-8.4,8.43c-1.52,1.42-3.22,2.47-5.34,2.66
			c-29.07,6.85-57.86,14.78-86.77,22.23c-27.39,7.06-54.75,14.26-82.13,21.33c-41.52,10.72-82.99,21.62-124.54,32.21
			c-3.35,0.85-6.86,2.72-10.29,0.03C309.51,659.17,309.52,655.57,309.52,651.97z"/>
		<path class="st5" d="M635.61,565.49c4.53-4.86,9.05-9.73,13.58-14.59c1.82-3.48,3.47-7.17,8.4-6.82
			c2.73,3.41,2.33,7.57,2.83,11.54c3.08,24.42,6.46,48.8,9.77,73.19c2.32,17.08,4.85,34.12,6.91,51.23
			c0.46,3.82,2.16,7.3,3.02,11.01c-8.16,5.21-16.65,9.82-25.42,13.92c-2.6-1.97-2.9-4.93-3.29-7.81
			c-5.48-40.86-11.19-81.7-16.76-122.55C634.22,571.46,633.83,568.38,635.61,565.49z"/>
		<path class="st6" d="M309.52,631.74c0-3.14,0-6.28,0-9.42c2.11-2.3,5.01-2.84,7.83-3.57c50.38-13.1,100.81-26.04,151.2-39.14
			c60.16-15.64,120.32-31.26,180.5-46.83c2.4-0.62,4.73-1.4,7.02-2.32c4.37-0.92,6.21,2.28,8.3,5.1c0.24,0.67,0.27,1.36,0.1,2.05
			c-1.92,2.96-3.85,5.9-8.04,5.61c-12.44,3.88-25.14,6.81-37.74,10.05c-93.09,23.93-186.04,48.39-279.14,72.26
			c-7.39,1.9-14.72,4.06-22.16,5.79C314.82,631.93,312.22,633.02,309.52,631.74z"/>
		<path class="st7" d="M309.52,616.92c0-3.15,0-6.29,0-9.44c5.1-3.66,11.29-4.3,17.08-5.77c58.31-14.8,116.47-30.17,174.71-45.2
			c44.12-11.39,88.22-22.83,132.31-34.33c3.6-0.94,6.66-2.54,9.32-5.06c5.96,0.75,9.22,3.86,10.8,10.28c-1.71,3.19-5,3.57-7.99,4.34
			c-36.75,9.4-73.43,19.05-110.15,28.53c-71.5,18.45-142.97,36.99-214.42,55.58C317.43,616.82,313.64,619.17,309.52,616.92z"/>
		<path class="st8" d="M309.53,602.1c0-2.7,0-5.41,0-8.11c2.76-4.39,7.71-4.36,11.88-5.44c26.31-6.84,52.6-13.74,78.92-20.51
			c75.5-19.41,150.9-39.17,226.38-58.64c2.4-0.62,4.7-1.54,7.09-2.17c4.85,0.43,7.36,3.33,8.27,7.9c-0.8,4.06-4.41,4.08-7.3,4.83
			c-23.7,6.1-47.37,12.33-71.07,18.44c-82.19,21.16-164.28,42.73-246.49,63.8C314.66,602.84,312.06,604.16,309.53,602.1z"/>
		<path class="st9" d="M309.53,587.26c0-2.7,0-5.41,0-8.11c1.82-3.55,5.5-3.58,8.66-4.4c34.55-8.92,69.05-17.99,103.61-26.89
			c63.24-16.27,126.43-32.75,189.63-49.15c3.69-0.96,7.36-2.04,11.16-2.48c3.38-0.19,5.34,2.05,7.3,4.29
			c0.86,1.28,1.39,2.63,0.79,4.19c-1.88,2.63-4.89,3.01-7.68,3.73c-64.14,16.47-128.2,33.22-192.32,49.77
			c-37.17,9.59-74.28,19.38-111.48,28.85C316.06,587.86,312.8,589.67,309.53,587.26z"/>
		<path class="st10" d="M309.53,572.44c0-2.7,0-5.39,0-8.09c1.91-2.54,4.81-3.13,7.64-3.86c51.29-13.28,102.61-26.48,153.87-39.86
			c46.49-12.13,93.07-23.91,139.47-36.36c4.39-0.08,6.58,2.81,8.38,6.23c0.14,0.75,0.08,1.49-0.16,2.21c-1.69,3.24-5.01,3.55-8,4.32
			c-45.87,11.93-91.74,23.84-137.62,35.7c-51.1,13.21-102.19,26.49-153.29,39.69C316.48,573.28,312.96,575.13,309.53,572.44z"/>
		<path class="st11" d="M309.53,558.93c0-3.14,0-6.28,0-9.42c2.1-2.31,5.02-2.84,7.84-3.57c73.44-19.19,146.96-38.09,220.41-57.23
			c20.2-5.27,40.63-9.72,60.48-16.28c3.47-0.89,5.24,1.7,7.38,3.58c1.4,1.69,2.98,3.33,2.07,5.85c-1.66,2.16-4.21,2.45-6.57,3.06
			c-46.54,12.01-93.05,24.14-139.58,36.23c-47.17,12.26-94.39,24.36-141.54,36.71C316.63,558.74,313.22,560.42,309.53,558.93z"/>
		<path class="st12" d="M599.37,472.45c-0.22,3.73-3.54,3.02-5.61,3.56c-26.14,6.9-52.33,13.63-78.49,20.43
			c-67.47,17.55-134.94,35.11-202.41,52.65c-1.07,0.28-2.21,0.29-3.32,0.42c0-2.7-0.01-5.4-0.01-8.11c1.65-3.33,5.05-3.45,8.01-4.25
			c45.75-12.26,91.69-23.76,137.52-35.71c41.27-10.77,82.52-21.6,123.87-32.03c4.14-1.04,8.19-2.38,12.22-3.77
			c3.26-0.96,5.11,1.23,7.07,3.17C599.05,469.89,599.78,470.99,599.37,472.45z"/>
		<path class="st13" d="M309.53,453.78c0-4.04,0-8.08,0-12.12c4.46-3.88,10.26-4.38,15.59-5.74
			c56.23-14.33,112.27-29.38,168.55-43.5c6.73-1.69,13.11-4.59,20.03-5.55c4.06,0.41,6.25,3.29,8.37,6.29
			c0.34,0.66,0.57,1.35,0.73,2.08c0.8,4.72-2.72,5.65-5.98,6.55c-9.73,2.68-19.53,5.14-29.31,7.65
			c-56.07,14.38-112.04,29.16-168.14,43.44C316.17,453.69,312.96,455.23,309.53,453.78z"/>
		<path class="st14" d="M309.53,689.72c0-3.15,0-6.29,0-9.44c8.51-4.91,18.27-5.92,27.51-8.33c51.63-13.44,103.27-26.83,154.91-40.2
			c29.51-7.64,58.97-15.48,88.56-22.82c3.11-0.77,6.41-2.66,9.57,0.06c-0.9,7.79-6.49,11.31-12.86,14.14
			c-6.59,0.18-12.76,2.39-19.02,4.05c-53.34,14.08-106.81,27.62-160.17,41.6c-26.46,6.93-52.94,13.83-79.46,20.54
			C315.65,690.07,312.63,691.76,309.53,689.72z"/>
		<path class="st15" d="M309.51,534.69c0-2.7,0-5.39,0-8.09c2.4-3.09,6-3.76,9.46-4.64c44.78-11.34,89.47-22.99,134.18-34.59
			c40.8-10.59,81.63-21.09,122.39-31.83c1.74-0.46,3.46-0.94,5.26-1.09c3.38-0.18,5.34,2.05,7.3,4.29c0.86,1.28,1.39,2.63,0.79,4.19
			c-1.88,2.63-4.9,3-7.68,3.73c-60.59,15.89-121.26,31.48-181.9,47.2c-27.17,7.04-54.34,14.08-81.5,21.15
			C315.02,535.73,312.2,536.97,309.51,534.69z"/>
		<path class="st16" d="M577.71,622.3c4.47-3.62,8.5-7.67,12.13-12.14c0.8-0.4,1.52-0.29,2.17,0.32c4.27,7.47,3.76,15.98,4.87,24.06
			c3.91,28.56,7.94,57.1,11.78,85.67c0.45,3.32,1.15,6.63,0.06,9.95c-5.36,3.92-11.24,6.91-17.3,9.55
			c-5.02-0.08-4.52-4.17-4.99-7.23c-3.43-22.39-6.21-44.88-9.33-67.32c-1.67-11.99-3.44-23.98-4.71-36.02
			C572.72,625.74,574.29,623.3,577.71,622.3z"/>
		<path class="st17" d="M514.43,387.58c-24.9,9.09-50.92,14.08-76.45,20.85c-41.68,11.06-83.41,21.91-125.13,32.82
			c-1.07,0.28-2.21,0.29-3.32,0.42c0-4.04,0-8.09,0-12.13c9.87-5.14,20.89-6.57,31.44-9.33c54.24-14.2,108.59-28.01,162.78-42.39
			c2.33-0.5,4.04,0.67,5.66,2.08c1.81,1.87,3.82,3.56,5.17,5.85C514.83,386.38,514.76,386.99,514.43,387.58z"/>
		<path class="st18" d="M309.52,511.77c47.06-12.12,94.13-24.24,141.19-36.36c37.13-9.57,74.27-19.11,111.38-28.79
			c2.7-0.7,5.83-1.04,7.62-3.8c1.52-0.4,2.65,0.36,3.74,1.26c1.58,1.53,2.78,3.26,2.83,5.57c-0.31,4.21-3.78,4.51-6.73,5.4
			c-15.7,4.73-31.69,8.41-47.56,12.49c-67.2,17.28-134.28,35-201.52,52.14c-3.55,0.91-7.26,2.99-10.95,0.19
			C309.52,517.16,309.52,514.47,309.52,511.77z"/>
		<path class="st19" d="M309.52,704.53c0-3.14,0-6.28,0-9.42c1.93-2.11,4.57-2.73,7.19-3.41c49.81-12.82,99.59-25.75,149.38-38.65
			c32.4-8.4,64.74-16.99,97.23-25.04c2.53-0.63,5.09-2.16,7.73-0.27c1.62,4.48-2.48,6.06-4.42,8.75c-2.59,2.25-4.67,5.27-8.48,5.74
			c-33.93,7.81-67.44,17.23-101.17,25.83c-28.07,7.16-56.09,14.51-84.12,21.82c-18.03,4.7-36.01,9.67-54.16,13.92
			C315.71,704.5,312.71,705.94,309.52,704.53z"/>
		<path class="st20" d="M928.37,530.44c2.1,5.05,1.94,10.06-0.26,15.03c-6.25,5.99-14.21,9.32-21.51,13.65
			c-45.68,27.13-91.7,53.7-137.44,80.74c-0.38,0.23-0.82,0.35-1.26,0.48c-4.91-0.93-7.54-4.27-9.19-8.65c0-4,3.43-5.03,6.01-6.55
			c32.88-19.38,65.82-38.65,98.77-57.91c19.58-11.44,39.05-23.06,58.77-34.25C924.18,531.89,925.93,530.32,928.37,530.44z"/>
		<path class="st21" d="M879.69,493.27c4.04,2.23,8.08,4.46,12.13,6.69c1.46,4.67-2.98,5.01-5.2,6.35
			c-21.14,12.77-42.54,25.11-63.83,37.62c-31.74,18.66-63.64,37.03-95.26,55.91c-5-0.78-7.54-4.22-9.26-8.55
			c-0.01-3.89,3.14-5.21,5.77-6.77c37.08-21.94,74.34-43.6,111.5-65.41C850.24,510.49,865.03,501.99,879.69,493.27z"/>
		<path class="st22" d="M500.78,700.3c0.93-1.28,1.87-2.55,2.8-3.83c1.46-3.91,4.99-6.11,7.53-9.13c2.5-2.46,4.88-5.03,7.48-7.38
			c1.54-1.38,2.9-3.52,5.57-2.35c2.09,4.11,1.74,8.73,2.26,13.07c2.7,22.79,6.37,45.46,8.82,68.28c0.39,3.62,2.1,6.82,2.25,10.41
			c-7.79,5.14-16.02,9.49-24.45,13.48c-2.84-1.79-2.98-4.79-3.39-7.64c-3.17-22.08-5.93-44.22-9.15-66.3
			C500.09,706.04,499.9,703.15,500.78,700.3z"/>
		<path class="st23" d="M500.78,700.3c2.49,8.31,2.84,16.96,4.1,25.46c2.83,19.02,5.45,38.07,8.16,57.1
			c-7.78,5.04-15.88,9.51-24.32,13.34c-4.04-0.3-4.04-3.66-4.39-6.31c-2.5-19.01-5.26-37.97-7.92-56.96
			c-0.47-3.36-0.32-6.7,1.47-9.75C485.11,715.17,492.73,707.51,500.78,700.3z"/>
		<path class="st24" d="M847.28,475.61c4.04,2.22,8.09,4.44,12.13,6.66c0.13,3.16-2.56,4.02-4.55,5.19
			c-49.74,29.07-99.39,58.3-149.16,87.32c-0.78,0.46-1.63,0.74-2.52,0.93c-4.75-1.11-7.64-4.12-8.95-8.76c0.83-3.8,4.17-5.12,7-6.77
			c46.63-27.33,93.31-54.58,139.85-82.07C843.03,476.96,845.04,476,847.28,475.61z"/>
		<path class="st25" d="M309.52,486.14c0-3.14,0-6.28,0-9.42c2.84-2.9,6.68-3.56,10.34-4.49c68.89-17.48,137.57-35.83,206.45-53.36
			c4.5-1.15,9.38-1.55,12.89-5.22c3.49-1.71,4.95,1.43,7.09,2.97c1.74,2.16,4.51,3.84,3.42,7.32c-6.72,4.5-14.74,5.19-22.24,7.13
			C475.7,444.44,424,458.06,372.22,471.36c-18.28,4.7-36.47,9.74-54.84,14.05C314.81,486.02,312.27,487.38,309.52,486.14z"/>
		<path class="st26" d="M309.54,409.31c-0.01-3.6-0.01-7.2-0.02-10.8c1.49-3.09,4.58-3.35,7.35-4.08
			c36.87-9.68,73.81-19.07,110.67-28.78c16.91-4.46,34-8.21,50.7-13.46c3.37-0.56,5.23,1.85,7.36,3.73
			c1.78,2.16,4.49,3.89,3.53,7.37c-1.61,2.53-4.32,3.07-6.91,3.75c-55.21,14.34-110.45,28.59-165.66,42.95
			C314.13,410.62,311.71,411.24,309.54,409.31z"/>
		<path class="st27" d="M309.52,616.92c40.01-10.34,80.03-20.66,120.03-31.02c72.88-18.87,145.76-37.76,218.64-56.62
			c1.99-0.51,3.91-1.04,5.1-2.9c2.79-0.09,4.14,1.24,4.05,4.04c-0.22,3.73-3.53,3.02-5.6,3.56c-30.66,7.98-61.38,15.77-92.06,23.69
			c-74.97,19.37-149.95,38.72-224.88,58.26c-8.41,2.19-16.72,4.78-25.28,6.39C309.52,620.52,309.52,618.72,309.52,616.92z"/>
		<path class="st28" d="M309.52,631.74c19.22-4.99,38.45-9.97,57.66-14.98c76.48-19.94,152.95-39.91,229.44-59.82
			c19.01-4.95,38.08-9.67,57.11-14.55c1.32-0.34,2.53-1.07,3.55,0.44c0.29,0.27,0.37,0.53,0.25,0.76c-0.12,0.23-0.23,0.34-0.34,0.34
			c-2.67,2.32-5.33,4.64-8,6.96c-2.77-3-5.65-0.29-8.07,0.33c-48.28,12.33-96.5,24.91-144.73,37.43
			c-62.29,16.17-124.58,32.32-186.88,48.49C309.52,635.34,309.52,633.54,309.52,631.74z"/>
		<path class="st29" d="M309.52,724.77c0-3.15,0-6.29,0-9.44c6.81-4.28,14.78-5.12,22.3-7.05c56.49-14.47,112.84-29.48,169.35-43.88
			c11.08-2.82,22.09-5.95,33.23-8.57c2.75-0.65,5.62-2.02,8.36,0.16c1.59,3.44-1.25,5.09-2.92,7.21c-2.81,2.33-4.85,5.6-8.43,7.03
			c-0.7,0.14-1.4,0.16-2.1,0.08c-16.62,2.88-32.72,7.92-49.01,12.12c-30.23,7.78-60.48,15.47-90.65,23.47
			c-23.01,6.1-46.1,11.88-69.12,17.94C316.99,724.78,313.39,726.98,309.52,724.77z"/>
		<path class="st30" d="M540.04,413.16c0.86,2.94-0.11,3.91-3.27,4.71c-23.35,5.89-46.6,12.15-69.89,18.24
			c-51.55,13.48-103.12,26.93-154.68,40.37c-0.85,0.22-1.78,0.17-2.67,0.24c0-2.7,0-5.4,0-8.11c1.8-3.54,5.49-3.7,8.63-4.54
			c26.91-7.17,53.89-14.14,80.87-21.05c42.43-10.88,84.76-22.14,127.23-32.88c2.4-0.61,4.74-1.39,7.04-2.3
			c2.32-0.95,4,0.22,5.57,1.71C539.74,410.59,540.48,411.69,540.04,413.16z"/>
		<path class="st31" d="M422.59,778.43c9.97-10.71,20.26-21.09,31.02-31c2.82,7.13,2.86,14.69,3.74,22.16
			c1.53,13.01,4.02,25.9,4.98,38.99c0.07,0.92,0.17,1.76-0.55,2.46c-10.43,6.51-21.17,12.44-32.26,17.74
			c-2.42-0.82-2.55-2.87-2.61-4.93c-0.36-12.75-3.32-25.12-5.51-37.6C420.92,783.49,421.25,780.89,422.59,778.43z"/>
		<path class="st32" d="M309.53,602.1c25.3-6.41,50.63-12.72,75.9-19.25c35.65-9.21,71.26-18.61,106.9-27.88
			c47.95-12.47,95.91-24.88,143.86-37.36c1.98-0.51,4.82-0.02,4.97-3.35c1.96-0.17,2.87,0.72,2.7,2.69
			c-0.83,3.95-3.43,5.56-7.26,6.54c-53.25,13.59-106.47,27.26-159.67,41.04c-53.85,13.95-107.65,28.04-161.49,42.04
			c-1.92,0.5-3.94,0.63-5.92,0.93C309.52,605.69,309.53,603.89,309.53,602.1z"/>
		<path class="st33" d="M479.36,352.56c-7.24,5.59-16.31,5.73-24.6,7.93c-47.74,12.62-95.59,24.82-143.41,37.18
			c-0.64,0.17-1.22,0.56-1.83,0.85c0-4.04-0.01-8.08-0.01-12.12c1.92-2.52,4.8-3.12,7.63-3.84c42.76-10.83,85.38-22.19,128.14-33.05
			c7.81-1.98,15.59-4.09,23.27-6.55c2.23-0.72,3.93,0.31,5.52,1.69c1.53,1.49,3.01,3.04,4.46,4.63
			C479.22,350.26,479.92,351.25,479.36,352.56z"/>
		<path class="st34" d="M309.53,453.78c22.46-5.84,44.92-11.69,67.39-17.51c46.9-12.16,93.79-24.33,140.72-36.39
			c3.34-0.86,4.52-2.36,3.56-5.6c5.15,1.03,8.13,4.05,8.63,9.37c-1.81,4.39-5.96,5.13-9.85,6.12c-37.4,9.57-74.72,19.43-112.1,29.05
			c-29.56,7.61-59.06,15.44-88.67,22.84c-3.14,0.79-6.4,2.61-9.67,0.21C309.53,459.19,309.53,456.49,309.53,453.78z"/>
		<path class="st35" d="M309.53,587.26c25.5-6.48,51.01-12.91,76.5-19.45c57.04-14.65,114.06-29.34,171.08-44.05
			c22.46-5.79,44.91-11.64,67.35-17.55c2.08-0.55,4.48-0.7,5.92-2.75c2.78-0.08,4.15,1.24,4.04,4.05c-0.85,2.2-2.71,2.53-4.77,3.06
			c-41.74,10.69-83.46,21.44-125.16,32.27c-64.39,16.72-128.76,33.52-193.13,50.3c-0.64,0.17-1.22,0.56-1.83,0.85
			C309.53,591.75,309.53,589.51,309.53,587.26z"/>
		<path class="st36" d="M529.29,402.4c-2.31-3.09-5-5.8-8.1-8.11c-0.03-0.39-0.05-0.77-0.09-1.16c0.16-3.67,3.2-3.91,5.68-4.49
			c35.75-8.38,71.55-16.58,107.34-24.78c2.85-0.65,5.71-0.98,8.62-0.55c6.64,2.37,12.25,6.65,18.45,9.84
			c-0.4,3.58-3.42,3.73-5.91,4.31c-33.13,7.8-66.32,15.34-99.51,22.93c-7.2,1.65-14.41,3.27-21.53,5.3
			C531.53,406.21,530.11,404.76,529.29,402.4z"/>
		<path class="st37" d="M523.69,677.33c-4.01,3.69-8.01,7.38-12.02,11.07c-9.66,3.63-19.79,5.67-29.74,8.22
			c-54.24,13.9-108.39,28.1-162.61,42.07c-3.18,0.82-6.38,2.35-9.81,0.9c0-3.14,0-6.28,0-9.42c1.93-2.1,4.56-2.72,7.17-3.4
			c46.42-12,92.83-24.08,139.24-36.13c20.17-5.23,40.29-10.66,60.55-15.54c2.49-0.6,5.1-2.26,7.56,0.16
			C524.32,676.01,524.2,676.7,523.69,677.33z"/>
		<path class="st38" d="M309.53,572.44c14.24-1.79,27.73-6.65,41.55-10.15c53.41-13.53,106.74-27.38,160.08-41.21
			c33.9-8.79,67.76-17.76,101.66-26.58c2.2-0.57,4.5-0.6,5.44-3.17c2.91-0.35,4.12,1.83,5.54,3.7c0.21,0.58,0.17,1.15-0.15,1.68
			c-12.24,4.84-25.15,7.41-37.82,10.7c-79.14,20.55-158.35,40.83-237.52,61.25c-12.97,3.35-25.86,6.99-38.79,10.49
			C309.53,576.92,309.53,574.68,309.53,572.44z"/>
		<path class="st39" d="M309.51,662.76c14.23-1.85,27.78-6.59,41.6-10.12c55.18-14.08,110.31-28.32,165.44-42.59
			c29.84-7.72,59.61-15.67,89.45-23.37c2.58-0.67,5.21-2.8,8.12-0.76c0.81,3.22-2.04,4.42-3.51,6.38c-1.54,1.44-3.25,2.54-5.42,2.75
			c-36.05,8.35-71.7,18.32-107.54,27.48c-27.59,7.05-55.14,14.29-82.7,21.43c-32.56,8.44-65.07,17.1-97.72,25.2
			c-2.51,0.62-5.05,2.23-7.71,0.34C309.52,667.25,309.52,665.01,309.51,662.76z"/>
		<path class="st40" d="M309.53,558.93c27.44-7.19,54.87-14.42,82.32-21.56c70.93-18.44,141.87-36.84,212.82-55.23
			c1.13-0.29,2.15-0.57,2.79-1.61c2.12-0.44,3.19,0.95,4.22,2.41c0.21,0.57,0.17,1.12-0.16,1.64c-7.55,5.3-16.73,5.85-25.2,8.07
			c-70.17,18.38-140.47,36.27-210.72,54.37c-22.04,5.68-44.04,11.54-66.06,17.31C309.53,562.54,309.53,560.74,309.53,558.93z"/>
		<path class="st41" d="M918.98,516.82c2.11,1.54,4.07,3.22,5.29,5.6c0.98,4.4-2.41,5.92-5.24,7.57
			c-43.97,25.52-87.89,51.15-131.61,77.1c-10.97,6.51-22.24,12.51-32.82,19.69c-4.45-0.35-6.66-3.16-7.78-7.13
			c0.97-4.34,4.89-5.63,8.08-7.51c49.67-29.32,99.49-58.4,149.33-87.42C909.04,521.9,913.36,518.12,918.98,516.82z"/>
		<path class="st42" d="M309.53,669.5c35.63-9.27,71.26-18.57,106.9-27.81c60.49-15.68,120.98-31.35,181.49-46.92
			c2.58-0.66,5.21-2.79,8.11-0.77c0.87,2.36-1.02,3.54-2.15,5.06c-1.97,1.91-3.88,3.93-6.94,3.9c-16.27,3.38-32.24,7.98-48.3,12.16
			c-53.22,13.86-106.5,27.51-159.7,41.45c-23.23,6.09-46.52,11.98-69.75,18.11c-3.12,0.82-6.4,2.63-9.67,0.22
			C309.53,673.09,309.53,671.3,309.53,669.5z"/>
		<path class="st43" d="M504.92,378.4c-7.29,4.8-16.01,5.4-24.08,7.54c-55.25,14.63-110.66,28.69-166.02,42.9
			c-1.71,0.44-3.52,0.47-5.29,0.69c0-2.7,0-5.39,0-8.09c1.91-2.55,4.82-3.13,7.65-3.85c51.78-13.31,103.47-26.93,155.25-40.22
			c7.8-2,15.81-3.46,23.12-7.11c4.9-1.47,6.25,2.64,8.48,5.39C504.56,376.49,504.94,377.39,504.92,378.4z"/>
		<path class="st44" d="M309.53,674.89c25.33-6.42,50.68-12.75,75.98-19.27c51.93-13.37,103.84-26.81,155.75-40.26
			c17.3-4.48,34.58-9.08,51.85-13.68c1.72-0.46,3.36-1.57,4.83,0.39c0.45,0.53,0.55,1.13,0.36,1.78c-1.83,2.68-3.65,5.39-7.19,6.04
			c-0.42,0.1-0.84,0.19-1.27,0.26c-1.76-2.28-3.62-0.62-5.46-0.15c-49.9,12.88-99.79,25.77-149.69,38.64
			c-39.75,10.25-79.5,20.5-119.26,30.71c-1.92,0.49-3.94,0.63-5.91,0.93C309.53,678.49,309.53,676.69,309.53,674.89z"/>
		<path class="st45" d="M309.51,534.69c13.66-3.28,27.38-6.37,40.98-9.87c35.69-9.19,71.33-18.57,106.99-27.84
			c41.94-10.9,83.89-21.74,125.8-32.7c1.83-0.48,4.08-0.61,5.29-2.59c2.12-0.47,3.19,0.94,4.22,2.39c0.22,0.57,0.16,1.12-0.16,1.64
			c-2.95,4.58-8.26,4.17-12.5,5.28c-58.04,15.16-116.2,29.9-174.28,44.93c-32.16,8.32-64.24,16.98-96.35,25.48
			C309.52,539.17,309.51,536.93,309.51,534.69z"/>
		<path class="st46" d="M827.11,464.64c3.56,1.89,7.13,3.78,10.69,5.67c0.42,3.15-2,4.29-4.07,5.51
			c-48.25,28.25-96.52,56.46-144.73,84.76c-0.77,0.45,0.16-0.21-0.64,0.22c-4.27-0.62-6.59-3.28-7.62-7.29
			c0.47-3.33,3.1-4.72,5.62-6.19c45.08-26.29,90.1-52.68,135.12-79.06C823.41,467.13,825,465.48,827.11,464.64z"/>
		<path class="st47" d="M688.27,560.32c9.29-8.18,20.62-13.14,31.07-19.46c22.56-13.64,45.45-26.73,68.22-40.02
			c14.86-8.67,29.73-17.33,44.63-25.93c2.15-1.24,4.37-2.3,5.62-4.6c3.16,1.77,6.32,3.53,9.48,5.3
			c-10.48,8.09-22.33,13.95-33.67,20.62c-37.43,22.02-74.99,43.82-112.43,65.83c-2.22,1.31-4.95,2.3-6.17,4.98
			c-0.5,0.44-1.07,0.57-1.71,0.38C690.94,565.54,687.75,564.24,688.27,560.32z"/>
		<path class="st48" d="M575.12,448.19c-0.93-1.28-1.85-2.55-2.78-3.83c0.55-4.62,4.6-4.39,7.59-5.09
			c34.9-8.11,69.85-16,104.77-24.04c12.42-2.86,24.81-5.88,37.28-8.55c5.33,2.79,10.66,5.57,15.99,8.36
			c-1.25,3.95-5.04,3.23-7.8,3.87c-49.55,11.43-99.09,22.94-148.69,34.19C577.78,453.52,576.42,450.89,575.12,448.19z"/>
		<path class="st49" d="M575.12,448.19c1.77,1.42,3.54,2.85,5.3,4.27c1.17,0.43,1.78,1.18,1.42,2.48
			c-12.25,5.58-25.57,7.46-38.44,10.81c-75.37,19.63-150.81,38.99-226.21,58.47c-2.59,0.67-5.12,1.58-7.68,2.38
			c0-2.25,0-4.49,0-6.74c13.97-1.97,27.35-6.36,40.95-9.84c57.28-14.69,114.54-29.46,171.79-44.28c15.99-4.14,31.9-8.56,47.87-12.77
			C572.81,452.27,575.59,452.02,575.12,448.19z"/>
		<path class="st50" d="M657.19,543.94c0.03-0.37,0.06-0.74,0.09-1.11c2.2-1.9,4.4-3.79,6.6-5.69c3.58-0.27,5.1,2.11,6.29,4.91
			c0.12,0.76,0.11,1.51-0.01,2.27c1.8,22.12,5.65,43.96,8.48,65.94c2.97,23.1,6.34,46.14,9.49,69.21c0.37,2.7,0.75,5.36-1.16,7.69
			c-2.03,1.75-4.16,3.32-6.86,3.88c-4.47-2.4-3.91-7.1-4.49-10.94c-2.8-18.37-5.39-36.8-7.76-55.2c-1.69-13.1-4.05-26.15-5.24-39.35
			C661.37,571.63,659.05,557.81,657.19,543.94z"/>
		<path class="st51" d="M669.54,542.69c-0.06-0.41-0.11-0.82-0.16-1.23c-0.59-3.67,2.59-4.39,4.72-5.64
			c33.6-19.77,67.24-39.49,100.9-59.16c11.99-7.01,24-13.99,35.93-21.11c3.15,1.74,6.3,3.48,9.45,5.22c1.74,4.11-1.83,4.96-4.11,6.3
			c-28.97,17.05-58.01,33.98-87,51c-17.39,10.21-34.73,20.51-52.32,30.39c-1.35,0.5-2.54,0.09-3.67-0.64
			C671.65,546.4,669.84,545.09,669.54,542.69z"/>
		<path class="st52" d="M570.97,629.02c-3.49-2.01-6.34,0.73-9.33,1.49c-72.18,18.43-144.34,36.95-216.45,55.67
			c-11.87,3.08-23.66,6.45-35.67,8.94c0-1.8,0-3.6,0-5.39c43.68-11.25,87.38-22.45,131.05-33.75
			c43.67-11.3,87.33-22.68,130.98-34.06c2.16-0.56,4.23-1.83,6.16,0.39c-1.38,1.71-2.76,3.43-4.14,5.14
			C573.01,628.47,572.64,629.81,570.97,629.02z"/>
		<path class="st53" d="M754.33,626.36c4.84-7.21,13.19-9.48,19.99-13.8c14.53-9.24,29.56-17.71,44.47-26.33
			c14.51-8.39,29.22-16.42,43.68-24.89c16.93-9.93,33.66-20.2,50.51-30.25c4.12-2.46,9.45-3.27,11.29-8.67
			c2.58,2.05,3.77,4.82,4.1,8.02c-12.45,9.19-26.36,15.97-39.58,23.88c-24.57,14.72-49.41,28.99-74.13,43.46
			c-17.19,10.06-34.36,20.15-51.54,30.22c-1.53,0.89-3.38,1.46-3.39,3.73C755.98,631.9,754.2,630.09,754.33,626.36z"/>
		<path class="st54" d="M688.27,560.32c1.82,2.18,3.65,4.35,5.47,6.53c3.16,6.4,2.96,13.48,3.91,20.3
			c4.09,29.22,8.31,58.42,11.99,87.69c-4.07,2.98-8.51,5.26-13.18,7.13c-2.74-2.5-2.84-5.97-3.29-9.25
			c-5.13-37.22-10.26-74.45-15.36-111.67c-0.36-2.65-1.07-5.3,0.08-7.93c1.5-2.04,2.61-1.14,3.63,0.48
			C683.32,556.28,685.55,558.54,688.27,560.32z"/>
		<path class="st55" d="M565.59,437.64c-2.66-2.32-5.33-4.65-7.99-6.97c-0.56-0.55-0.86-1.21-0.9-1.99
			c1.19-4.57,5.43-4.25,8.68-5.01c29.24-6.86,58.56-13.34,87.8-20.17c14.83-3.46,29.67-6.9,44.52-10.25
			c4.93,2.7,9.85,5.4,14.78,8.09c0.21,2.71-2.08,2.58-3.63,2.94c-29.88,6.97-59.83,13.6-89.7,20.61
			C601.28,429.08,583.28,432.74,565.59,437.64z"/>
		<path class="st56" d="M599.37,472.45c-0.48-0.82-0.95-1.64-1.43-2.47c-0.21-4.28,3.3-4.16,5.92-4.81
			c25.47-6.26,51.12-11.78,76.66-17.76c23.35-5.47,46.8-10.54,70.11-16.2c5.14-1.25,10.42-3.01,15.7-0.29
			c0.53,0.42,1.07,0.85,1.6,1.27c-0.43,5.6-4.61,7.69-8.97,9.64c-30.96,6.59-61.68,14.19-92.55,21.12
			c-19.27,4.33-38.54,8.67-57.72,13.4c-1.32,0.33-2.65,0.43-4,0.35C602.92,475.29,601.14,473.87,599.37,472.45z"/>
		<path class="st57" d="M309.52,704.53c21.81-5.71,43.61-11.47,65.43-17.13c58.59-15.2,117.18-30.38,175.79-45.45
			c2.57-0.66,5.21-2.82,8.11-0.74c0.82,2.35-1.04,3.53-2.17,5.04c-1.96,1.91-3.87,3.91-6.92,3.88c-26.65,6.21-53.03,13.45-79.5,20.3
			c-30.61,7.93-61.24,15.8-91.83,23.78c-20.4,5.33-40.78,10.73-61.24,15.81c-2.56,0.63-5.14,1.99-7.67-0.09
			C309.52,708.14,309.52,706.34,309.52,704.53z"/>
		<path class="st58" d="M557.5,429.54c0.03,0.38,0.07,0.76,0.09,1.13c-0.48,3.69-3.77,3.5-6.14,4.11
			c-58.15,15-116.33,29.9-174.51,44.83c-22.48,5.77-44.96,11.55-67.43,17.33c0-1.8,0-3.6,0-5.39c1.92-2.53,4.82-3.11,7.64-3.86
			c44.92-11.91,89.99-23.25,134.92-35.09c33.43-8.81,67.02-17.01,100.33-26.27C555.13,425.77,556.33,427.64,557.5,429.54z"/>
		<path class="st59" d="M553.53,426.64c-4.09,4.06-9.76,4.16-14.79,5.47C480.68,447.2,422.56,462.02,364.48,477
			c-18.35,4.73-36.64,9.69-54.96,14.55c0-1.8,0-3.6,0-5.41c21.77-6.73,43.98-11.76,66.01-17.49
			c57.26-14.91,114.53-29.73,171.79-44.63c0.79-0.2,1.44-0.93,2.15-1.42c1.27-0.48,2.2,0.19,3.1,0.94
			C553.34,424.44,554.01,425.36,553.53,426.64z"/>
		<path class="st60" d="M309.52,709.94c25.07-6.35,50.16-12.63,75.21-19.06c24.84-6.38,49.64-12.93,74.47-19.4
			c28.92-7.54,57.85-15.05,86.76-22.62c1.73-0.45,3.36-1.55,4.81,0.43c0.88,2.24-0.93,3.36-1.99,4.8c-1.87,1.39-3.03,4.13-6.1,3.28
			c-1.74-2.3-3.61-0.66-5.45-0.18c-58.56,15.18-117.08,30.55-175.73,45.4c-17.29,4.38-34.32,9.87-51.98,12.74
			C309.52,713.54,309.52,711.74,309.52,709.94z"/>
		<path class="st61" d="M469.93,343.1c-5.32,5.13-12.61,5.06-19.06,6.76c-47.06,12.4-94.22,24.4-141.36,36.53c0-3.15,0-6.29,0-9.44
			c2.61-2.46,6.08-2.71,9.29-3.55c47.67-12.43,95.46-24.43,143-37.35c3.23-0.69,5.11,1.42,7.06,3.4
			C469.67,340.54,470.42,341.64,469.93,343.1z"/>
		<path class="st62" d="M635.61,565.49c1.93,15.01,3.76,30.02,5.8,45.02c2.49,18.28,5.17,36.54,7.75,54.81
			c1.86,13.21,3.69,26.43,5.54,39.65c-2.81,2.38-6.11,3.88-9.49,5.24c-2.43-2.1-2.71-5.09-3.1-7.95
			c-5.3-39.57-10.82-79.11-16.24-118.66c-0.4-2.91-0.6-5.81,0.28-8.67c0.94-1.27,1.87-2.54,2.81-3.82
			C631.18,569.24,633.4,567.37,635.61,565.49z"/>
		<path class="st63" d="M309.52,336.51c0-3.6,0-7.2,0-10.8c1.47-3.08,4.57-3.41,7.31-4.15c20.54-5.48,41.17-10.63,61.71-16.09
			c13.84-3.67,27.81-6.84,41.48-11.13c0.68-0.25,1.38-0.34,2.1-0.3c4.23,2,7.34,5.14,9.41,9.35c0.06,0.74-0.08,1.44-0.42,2.1
			c-1.73,2.39-4.43,2.92-7.02,3.6c-35.13,9.34-70.35,18.33-105.56,27.37C315.6,337.23,312.53,338.82,309.52,336.51z"/>
		<path class="st64" d="M918.98,516.82c-10.97,8.91-23.81,14.82-35.82,22.05c-22.18,13.35-44.75,26.06-67.1,39.13
			c-20.43,11.94-40.8,23.96-61.16,36.01c-2.64,1.56-5.66,2.74-7.32,5.62c-4,0.3-5.44-2.2-6.08-5.57c0.94-3.14,3.77-4.3,6.24-5.75
			c52.03-30.45,104.01-60.97,156.06-91.38c3.2-1.87,6.18-5.51,10.8-3.77C916.54,513.81,917.9,515.16,918.98,516.82z"/>
		<path class="st65" d="M727.37,599.4c5.74-6.98,14.3-9.71,21.7-14.09c46.28-27.43,92.73-54.56,139.13-81.8
			c1.49-0.88,3.47-1.28,3.62-3.54c2.41,0.98,4.87,1.87,6.73,3.82c1.82,4.34-2.29,4.81-4.37,6.09
			c-19.12,11.77-38.64,22.88-58.01,34.22c-32.36,18.94-64.65,38-97.09,56.8c-2.15,1.24-3.92,3.01-6.1,4.2
			C729.38,604.9,727.12,603.38,727.37,599.4z"/>
		<path class="st66" d="M565.59,437.64c0.76-1.89,2.35-2.44,4.18-2.91c23.03-5.89,46.23-11.19,69.41-16.35
			c23.88-5.32,47.61-11.44,71.68-15.97c0.59-0.11,1.08-0.71,1.62-1.08c3.16,1.78,6.33,3.56,9.49,5.35c-0.21,2.46-2.06,2.3-3.86,2.71
			c-37.75,8.66-75.47,17.4-113.2,26.12c-8.89,2.05-17.77,4.11-26.68,6.05c-2.23,0.48-4.37,0.91-5.88,2.8
			c-0.88-0.51-1.76-1.03-2.63-1.54C568.33,441.09,566.96,439.36,565.59,437.64z"/>
		<path class="st67" d="M626.15,574.93c2.63,7.87,2.77,16.17,4.03,24.27c2.9,18.66,5.24,37.41,7.76,56.13
			c2.46,18.29,4.85,36.59,7.27,54.88c-2.91,2.2-5.94,4.16-9.52,5.12c-3.53-4.31-3.1-9.7-3.78-14.71
			c-4.87-36.17-10.01-72.31-14.8-108.5c-0.42-3.16-0.79-6.23,0.96-9.13C620.38,579.91,623.06,577.21,626.15,574.93z"/>
		<path class="st68" d="M581.84,454.94c-0.47-0.83-0.95-1.65-1.42-2.48c7.11-4.06,15.29-4.54,22.98-6.37
			c38.33-9.1,76.8-17.65,115.21-26.42c6.47-1.48,12.9-3.08,19.35-4.63c3.16,1.78,6.33,3.56,9.49,5.33c-0.44,3.57-3.47,3.7-5.97,4.3
			c-32.98,7.89-66.1,15.11-99.12,22.84c-15.3,3.58-30.64,7.03-45.93,10.65c-3.05,0.72-6.07,1.72-9.28,1.03
			C585.38,457.78,583.61,456.36,581.84,454.94z"/>
		<path class="st69" d="M529.29,402.4c1.31,0.96,2.63,1.92,3.94,2.87c1.17,0.44,1.8,1.18,1.41,2.5c-0.24,3.73-3.57,3-5.62,3.53
			c-32.16,8.4-64.39,16.56-96.55,24.95c-41.01,10.7-81.97,21.56-122.95,32.35c0-2.24,0-4.48,0-6.72
			c25.54-6.5,51.09-12.96,76.62-19.5c44.8-11.48,89.6-23,134.38-34.55C523.96,406.96,527.67,406.3,529.29,402.4z"/>
		<path class="st70" d="M421.39,294.59c-0.95,2.58-3.29,2.54-5.46,3.1c-34.66,8.94-69.31,17.95-103.95,26.96
			c-0.85,0.22-1.64,0.71-2.45,1.07c0-4.04,0-8.08,0-12.12c1.47-1.87,3.56-2.55,5.76-3.13c27.18-7.24,54.24-14.88,81.55-21.63
			c4.99-1.23,9.89-2.75,14.83-4.12c2.88-0.07,4.42,2.1,6.28,3.74C419.35,290.35,421.98,291.57,421.39,294.59z"/>
		<path class="st71" d="M868.9,487.57c2.51,0.87,4.89,1.97,6.84,3.84c0.47,3.29-2.37,4.09-4.3,5.21
			c-51.28,29.93-102.53,59.93-153.68,90.07c-0.78,0.46-1.59,0.83-2.46,1.07c-3.6-0.36-5.56-2.44-6.16-5.92
			c0.83-3.22,3.68-4.35,6.15-5.79c43.56-25.4,87.03-50.97,130.57-76.4C853.32,495.3,860.14,489.54,868.9,487.57z"/>
		<path class="st72" d="M796.03,447.34c2.78,1.61,5.55,3.21,8.33,4.82c0.63,3.95-2.78,4.69-5.07,6.04
			c-33.75,19.83-67.51,39.65-101.33,59.36c-6.18,3.61-12.18,7.55-18.59,10.75c-2.03,1.01-4.18,3.25-6.44,0.26
			c-0.2-0.9-0.27-1.9,0.34-2.57c7.91-8.73,15.45-17.85,25.4-24.48c6.48-1.57,11.66-5.74,17.2-9.01
			c23.59-13.93,47.41-27.46,70.87-41.62C789.63,449.14,792.48,447.34,796.03,447.34z"/>
		<path class="st73" d="M309.51,371.57c0-2.7,0-5.4,0-8.1c1.49-3.08,4.57-3.36,7.34-4.07c39.26-10.15,78.48-20.48,117.78-30.48
			c5.22-1.33,10.42-2.68,15.39-4.78c3.46-0.87,5.21,1.74,7.33,3.6c1.4,1.69,2.98,3.33,2.05,5.84c-4.29,3.77-9.92,4.03-15.02,5.35
			c-42.17,10.95-84.34,21.85-126.51,32.77C315.14,372.41,312.26,373.75,309.51,371.57z"/>
		<path class="st74" d="M523.8,676.24c-3.27-2.19-5.87,0.62-8.66,1.33c-58.19,14.83-116.37,29.68-174.48,44.77
			c-10.36,2.69-20.63,5.74-31.14,7.83c0-1.8,0-3.6,0-5.39c53.95-13.93,107.9-27.86,161.84-41.81c17.69-4.58,35.37-9.22,53.04-13.88
			c2.15-0.57,4.23-1.82,6.14,0.42C530.44,673.9,528.15,676.09,523.8,676.24z"/>
		<path class="st75" d="M603.24,597.79c0.93-1.26,1.86-2.53,2.79-3.79c1.28-0.94,2.55-1.87,3.83-2.81c4.48,0.87,4.12,4.81,4.52,7.82
			c4.09,30.43,8.29,60.84,12.51,91.25c1.29,9.31,2.58,18.63,3.76,27.96c-2.98,2.22-6.15,4.1-9.71,5.25c-5-1.34-4.15-5.87-4.62-9.28
			c-4.11-29.76-8.34-59.51-12.27-89.3c-0.7-5.34-1.45-10.67-2.29-15.98C601.16,605.05,601.29,601.31,603.24,597.79z"/>
		<path class="st76" d="M451.05,324.26c-2.77,4.56-7.89,4.29-12.09,5.39c-42.51,11.13-85.08,22-127.63,32.96
			c-0.64,0.16-1.22,0.56-1.83,0.85c0-3.14,0-6.28,0-9.42c2.11-2.3,5.02-2.83,7.84-3.55c39.14-10.01,78.18-20.39,117.33-30.35
			c2.83-0.72,5.64-1.51,8.33-2.65c4.3-1.04,6.1,2.16,8.2,4.85C451.51,323.01,451.46,323.65,451.05,324.26z"/>
		<path class="st77" d="M681.52,553.59c-0.88-0.51-1.76-1.03-2.63-1.54c-1.98-0.53-3.45-1.41-2.75-3.85
			c8.06-7.21,18.02-11.4,27.16-16.85c30.12-17.96,60.47-35.52,90.75-53.22c7.13-4.17,14.3-8.28,21.46-12.42
			c2.07-1.2,4.78-1.77,4.88-4.93c2.44,0.95,4.91,1.86,6.74,3.87c-0.04,2.04-1.24,3.14-2.92,4.12
			c-21.04,12.27-42.04,24.61-63.07,36.91c-22.76,13.32-45.58,26.53-68.24,40.01C688.94,548.02,683.83,548.86,681.52,553.59z"/>
		<path class="st78" d="M309.51,739.59c18.09-4.77,36.17-9.58,54.27-14.29c46.59-12.11,93.18-24.2,139.8-36.17
			c2.57-0.66,5.2-2.81,8.09-0.73c-2.27,3.13-4.95,5.83-8.09,8.08c-3.05-2.86-6.05-0.16-8.72,0.53
			c-47.78,12.25-95.49,24.74-143.22,37.16c-14.04,3.65-28.09,7.23-42.14,10.84C309.51,743.19,309.51,741.39,309.51,739.59z"/>
		<path class="st79" d="M552.11,424.15c-0.88-0.51-1.76-1.03-2.63-1.54c-1.37-1.73-2.74-3.47-4.11-5.2
			c0.08-4.88,4.27-4.64,7.21-5.35c19.13-4.63,38.32-8.97,57.51-13.35c20.06-4.58,40.07-9.38,60.15-13.86
			c3.3-0.74,6.56-1.18,9.91-1.04c2.71,1.4,5.42,2.8,8.12,4.2c2.21,4.31-1.14,4.98-3.93,5.74c-8.86,2.42-17.86,4.28-26.81,6.31
			C622.38,408.05,587.36,416.59,552.11,424.15z"/>
		<path class="st80" d="M444.33,317.49c-0.27,3.72-3.61,2.97-5.66,3.5c-32.2,8.41-64.44,16.67-96.68,24.92
			c-10.81,2.77-21.65,5.42-32.47,8.12c0-2.7,0-5.4,0-8.1c1.65-3.32,5.04-3.46,8-4.23c37.13-9.52,74.19-19.29,111.31-28.86
			c2.39-0.62,4.75-1.33,7.04-2.22c0.64-0.26,1.31-0.39,2-0.43c3.18,0.64,4.89,3.07,6.63,5.47
			C444.73,316.3,444.68,316.91,444.33,317.49z"/>
		<path class="st81" d="M767.82,639.81c6.96-6.84,16.02-10.4,24.19-15.31c24.9-14.95,50.05-29.47,75.1-44.15
			c19.27-11.29,38.54-22.59,57.84-33.85c0.93-0.54,2.1-0.69,3.16-1.03c-2.77,8.98-9.58,14.7-17.16,18.91
			c-47.15,26.17-94.51,51.98-141.79,77.9C768,641.85,767.06,641.29,767.82,639.81z"/>
		<path class="st82" d="M673.39,527.78c1.8,2.52,3,0.24,4.37-0.56c37.01-21.66,74.01-43.36,111.06-64.97
			c5.35-3.12,11.28-5.31,15.55-10.09c2.19,1.13,4.38,2.26,6.56,3.39c-4.11,6.66-11.57,8.69-17.71,12.36
			c-27.84,16.62-55.94,32.81-83.94,49.17c-11.97,6.99-23.92,14.02-35.9,21c-1.55,0.9-3.28,1.52-4,3.38
			c-1.83-1.44-3.66-2.88-5.49-4.32c-0.03-0.37-0.05-0.74-0.04-1.11C666.05,532.15,668.35,528.38,673.39,527.78z"/>
		<path class="st83" d="M680.14,383.79c-15.36,5.35-31.47,7.73-47.19,11.69c-22.67,5.72-45.61,10.36-68.34,15.83
			c-6.51,1.57-13.81,1.01-19.24,6.1c-1.78-1.41-3.55-2.83-5.33-4.24c-0.47-0.83-0.94-1.66-1.42-2.49c-1.51-4.96,2.81-4.28,5.12-4.88
			c15.61-4.03,31.37-7.42,47.07-11.07c25.72-5.98,51.47-11.83,77.22-17.65C672.3,378.91,676.47,380.9,680.14,383.79z"/>
		<path class="st84" d="M570.97,629.02c0.87-0.53,1.73-1.05,2.6-1.58c2.28,15.59,4.63,31.16,6.83,46.76
			c2.57,18.24,4.78,36.53,7.66,54.72c0.57,3.58-1.62,8.46,3.36,10.8c-3.28,2.77-7.11,4.54-11.02,6.19c-2.74-1.54-2.9-4.29-3.27-6.95
			c-4.33-31.22-8.38-62.49-12.91-93.68c-0.5-3.44-0.43-6.67,1.26-9.76C567.31,633.35,569.14,631.18,570.97,629.02z"/>
		<path class="st85" d="M411.95,285.16c-6.71,5.02-15.08,5.42-22.7,7.26c-26.75,6.45-53,14.73-79.73,21.18c0-4.04,0-8.09,0-12.13
			c2.29-2.49,5.48-2.94,8.51-3.7c25.5-6.36,50.9-13.11,76.33-19.77c2.4-0.63,4.74-1.39,7.02-2.35c2.31-0.81,3.95,0.45,5.56,1.8
			C408.77,279.91,412.32,281.26,411.95,285.16z"/>
		<path class="st86" d="M437.56,310.77c-0.96,2.6-3.32,2.54-5.5,3.1c-40.04,10.29-80.06,20.64-120.08,31
			c-0.86,0.22-1.65,0.71-2.47,1.07c0-3.14,0-6.28,0-9.42c25.53-6.49,51.06-12.97,76.58-19.48c13.2-3.37,26.37-6.81,39.57-10.18
			c1.99-0.51,3.9-1.03,5.16-2.81C435.03,304.33,437.25,306.58,437.56,310.77z"/>
		<path class="st87" d="M496.91,370.04c-0.38,3.15-2.86,3.6-5.29,4.22c-38.46,9.9-76.93,19.79-115.38,29.74
			c-22.25,5.76-44.47,11.62-66.7,17.44c0-1.8,0-3.61,0-5.41c1.65-3.34,5.05-3.45,8.01-4.24c49.06-13.02,98.27-25.47,147.39-38.26
			c8.9-2.32,17.88-4.42,26.57-7.49c2.41-0.92,4.06,0.19,5.42,2.04C497.29,368.74,497.28,369.4,496.91,370.04z"/>
		<path class="st88" d="M565.48,635.52c0.9,16.48,4.35,32.63,6.3,48.98c2.18,18.33,4.83,36.6,7.31,54.89
			c0.3,2.19,0.87,4.35,1.31,6.53c-2.42,2.01-5.17,3.4-8.11,4.46c-3.95-0.41-4.07-3.64-4.45-6.41c-4.16-30.15-8.14-60.32-12.39-90.45
			c-0.4-2.87-1-5.78,0.61-8.52c0.93-1.26,1.87-2.52,2.8-3.78C561.07,639.31,563.28,637.41,565.48,635.52z"/>
		<path class="st89" d="M477.87,723.19c0.7,18.2,4.07,36.06,6.88,54c0.65,4.11,0.97,8.29,1.25,12.45c0.17,2.56,0.66,4.85,2.72,6.57
			c-4.68,3.17-9.4,6.26-14.8,8.1c-2.61,0.16-2.78-1.97-3.04-3.6c-3.15-19.68-5.63-39.46-8.24-59.22c-0.14-1.09,0.33-2.21,0.29-3.34
			C467.48,732.74,472.48,727.77,477.87,723.19z"/>
		<path class="st90" d="M492.86,366.01c-0.19,3.34-3.05,2.8-5.02,3.32c-27.02,7.07-54.08,14.02-81.1,21.1
			c-32.42,8.49-64.81,17.07-97.21,25.61c0-2.24,0-4.48,0-6.72c13.63-3.27,27.31-6.35,40.88-9.84c35.82-9.21,71.59-18.6,107.38-27.91
			c8.84-2.3,17.69-4.56,26.52-6.87c1.74-0.45,3.43-1.06,4.47-2.71c2.18-0.57,3.24,0.89,4.28,2.37
			C493.29,364.94,493.21,365.49,492.86,366.01z"/>
		<path class="st91" d="M402.51,275.72c-0.19,1.44-0.78,2.39-2.37,2.79c-30.21,7.62-60.41,15.29-90.61,22.95c0-3.6,0-7.2,0-10.8
			c0.94-2.01,2.71-2.85,4.72-3.37c26.31-6.88,52.51-14.22,79.05-20.21c1.45-0.21,2.75,0.18,3.96,0.97
			C399.39,270.33,402.79,271.77,402.51,275.72z"/>
		<path class="st92" d="M556.06,644.99c4.09,29.64,7.89,59.33,12.53,88.88c0.86,5.45-1.08,11.85,3.7,16.5
			c-3.32,2.35-6.77,4.43-10.65,5.73c-2.41-1.79-2.84-4.49-3.18-7.16c-3.76-28.94-7.91-57.82-11.87-86.74
			c-0.44-3.24-0.2-6.25,1.38-9.13c0.93-1.26,1.86-2.52,2.79-3.79C552.53,647.86,554.29,646.42,556.06,644.99z"/>
		<path class="st93" d="M709.64,674.84c-2.97-0.41-2.25-2.74-2.52-4.67c-2.55-18.07-5.64-36.09-7.59-54.22
			c-1.76-16.39-5.54-32.54-5.8-49.1c0.42,0.09,0.85,0.15,1.28,0.19c2.23,3.16,4.91,5.87,8.1,8.08c2.52,0.7,3.45,2.59,3.74,4.96
			c4.3,29.77,8.13,59.61,12.34,89.39C716.34,671.86,713.04,673.44,709.64,674.84z"/>
		<path class="st94" d="M587.16,459.2c13.18-4.96,27.1-7.01,40.73-10.17c38.25-8.9,76.56-17.55,114.85-26.29
			c1.78-0.41,3.43-1,4.72-2.36c2.29,1.31,4.57,2.62,6.86,3.93c1.01,5.05-3.36,4.54-5.86,5.11c-15.94,3.65-31.87,7.34-47.8,11.01
			c-33.4,7.69-66.79,15.39-100.17,23.14c-2.61,0.61-5.18,1.48-7.93,1.01c-1.33-0.97-2.65-1.93-3.98-2.9
			C588.1,460.86,587.63,460.03,587.16,459.2z"/>
		<path class="st95" d="M309.53,278.54c0-4.94,0-9.89,0-14.83c2.28-2.48,5.48-2.84,8.48-3.68c17.86-5.03,36.04-8.9,53.79-14.34
			c6.42,0.3,8.75,6.09,12.81,9.57c0.82,1.26,1.32,2.57,0.71,4.08c-2.97,3.15-7.17,3.53-10.98,4.47
			c-18.87,4.64-37.57,9.95-56.45,14.51C315.17,278.98,312.36,280.5,309.53,278.54z"/>
		<path class="st96" d="M727.37,599.4c1.36,2.23,3.15,4.04,5.4,5.38c1.63,0.25,2.7,1.34,3.73,2.5c1.35,1.73,2.01,3.78,2.63,5.85
			c0.69,2.38-1.37,5.17,1.39,7.35c1.36,1.08,0.74,3-0.11,4.28c-3.25,4.93-3.05,9.2,1.94,12.87c0.46,0.34,0.41,1.22,0.41,1.88
			c-1.73,3.06-3.04,6.17-1.38,9.72c-1.63,2.7,1.1,5.64-0.44,8.34c-4.63,3.28-9.52,6.09-14.84,8.11c-3.79-6.19-2.82-13.37-3.85-20.07
			c-2.43-15.8-4.24-31.71-6.57-47.54c-0.38-2.57-1.31-5.37,1.61-7.26c0.76-0.19,1.42-0.02,2,0.51
			C721.52,594.47,724.2,597.17,727.37,599.4z"/>
		<path class="st97" d="M642.74,363.31c-17.1,4.09-34.17,8.27-51.29,12.25c-21.91,5.08-43.86,9.99-65.78,14.99
			c-1.76,0.4-3.43,1.03-4.56,2.59c-2.22-1.85-4.45-3.71-6.67-5.56c-0.03-0.39-0.05-0.77-0.09-1.16c0.11-3.66,3.17-4.06,5.62-4.62
			c35.19-8.11,70.35-16.38,105.6-24.26c1.98-0.44,4.02-0.32,6.02-0.6C635.6,358.53,639.33,360.64,642.74,363.31z"/>
		<path class="st98" d="M547.97,653.07c0.99,16.22,4.04,32.18,6.02,48.27c1.89,15.42,4.11,30.81,6.22,46.2
			c0.39,2.86,0.94,5.7,1.42,8.55c-2.69,2.59-6.13,3.85-9.47,5.29c-2.42-2.1-2.72-5.08-3.08-7.93c-3.45-27.06-7.55-54.04-11.02-81.1
			c-0.42-3.28-1.4-6.65,0.46-9.85c1.38-1.71,2.76-3.43,4.14-5.14C544.44,655.94,546.21,654.51,547.97,653.07z"/>
		<path class="st99" d="M630.65,718.23c-5.03-3.7-3.32-9.63-4.02-14.35c-4.16-27.98-7.15-56.14-11.44-84.09
			c-1.46-9.53-0.6-19.63-5.33-28.59c1.42-1.76,2.84-3.51,4.26-5.27c1.32-0.98,2.63-1.95,3.95-2.93c2.01,15.23,3.97,30.46,6.03,45.67
			c2.47,18.3,5.06,36.58,7.53,54.88c1.43,10.58,2.71,21.18,4.06,31.78C634.3,716.79,632.64,717.79,630.65,718.23z"/>
		<path class="st100" d="M592.55,464.59c10.73-5.3,22.68-6.22,34.05-9.1c22.46-5.7,45.15-10.46,67.76-15.58
			c17.6-3.98,35.24-7.77,52.78-12.02c2.4-0.58,6.23,0.41,7.17-3.58c4.09,2.04,8.46,3.59,12.01,6.62
			c-12.66-0.4-24.42,4.28-36.53,6.78c-22.67,4.68-45.18,10.19-67.74,15.41c-19.98,4.62-39.94,9.35-59.91,13.98
			c-1.85,0.43-3.43,1.01-4.19,2.89c-1.77-1.42-3.53-2.84-5.3-4.26C592.62,465.34,592.59,464.96,592.55,464.59z"/>
		<path class="st101" d="M523.8,676.24c2.67-1.82,4.91-4.08,6.74-6.74c0.42-0.07,0.84-0.16,1.26-0.26c2.63,1.61,2.98,4.32,3.33,7
			c3.9,29.3,8.06,58.56,11.97,87.86c-2.8,2.5-6.15,4-9.61,5.3c-5.12-4.31-4.1-10.83-4.65-16.15c-1.94-18.94-5.33-37.67-7.38-56.58
			c-0.7-6.42-2.31-12.79-1.77-19.33C523.72,676.96,523.76,676.6,523.8,676.24z"/>
		<path class="st102" d="M914.6,513.17c-14.33,6.86-27.61,15.58-41.31,23.53c-30.77,17.85-61.44,35.86-92.03,54.01
			c-13.06,7.75-26.71,14.54-39.05,23.47c-1.64,0.68-2.52-0.28-3.27-1.52c-1.56-4.92,2.52-6.26,5.42-7.95
			c23.83-13.85,47.54-27.91,71.34-41.81c29.99-17.51,60-35.01,89.89-52.7c0.78-0.46,1.56-0.88,2.42-1.16
			C910.74,509.59,912.76,511.24,914.6,513.17z"/>
		<path class="st103" d="M309.53,278.54c24.2-6.28,48.41-12.58,72.62-18.82c1.12-0.29,2.17-0.49,2.84-1.52
			c5.23,1.08,8.4,4.2,9.43,9.46c-16.38,5.68-33.43,8.93-50.09,13.59c-11.57,3.23-23.2,6.29-34.8,9.42
			C309.53,286.62,309.53,282.58,309.53,278.54z"/>
		<path class="st104" d="M496.91,370.04c-0.02-0.39-0.05-0.78-0.08-1.17c-0.08-2.86,2.34-3.11,4.12-3.52
			c33.19-7.75,66.32-15.75,99.64-22.89c1.31-0.28,2.68-0.12,4.01-0.33c3.49,1.17,6.57,3.09,9.51,5.27c1.13,5.07-3.31,4.56-5.78,5.19
			c-12.58,3.22-25.28,5.96-37.94,8.87c-22.26,5.12-44.49,10.37-66.78,15.38C501.39,374.57,499.83,371.64,496.91,370.04z"/>
		<path class="st105" d="M908.02,509.06c-4.14,6.71-11.76,8.46-17.9,12.13c-40.92,24.4-82.06,48.43-123.16,72.53
			c-7.14,4.19-14.47,8.06-21.59,12.28c-2.53,1.5-6.09,2.36-5.87,6.47c-0.26,0.69-0.71,0.86-1.35,0.5c-0.9-1.84-1.79-3.67-2.69-5.51
			c-0.55-3.66,2.62-4.38,4.75-5.62c33.62-19.68,67.19-39.46,100.84-59.1c19.53-11.4,39-22.91,58.6-34.19
			c1.37-0.79,2.7-1.59,4.26-1.92C905.28,507.44,906.65,508.25,908.02,509.06z"/>
		<path class="st106" d="M591.11,609.9c2.24-2.24,4.49-4.48,6.73-6.72c2.42,1.76,2.83,4.46,3.21,7.11
			c5.15,36.28,9.93,72.62,14.97,108.92c0.34,2.42,0.7,4.9-0.39,7.26c-1.95,1.88-4.29,3.05-6.91,3.69
			c-2.62-7.34-2.79-15.14-3.93-22.73c-3.31-21.93-6.36-43.91-9.14-65.91C594.31,630.96,593.21,620.36,591.11,609.9z"/>
		<path class="st107" d="M903.91,506.63c-5.48,6.23-13.28,8.99-20.13,13.03c-48.17,28.46-96.55,56.57-144.89,84.75
			c-1.38,0.81-2.78,1.47-3.42,3.05c-0.9-0.9-1.8-1.79-2.7-2.69c2.52-5.68,8.48-6.97,13.07-9.72c28.41-16.97,57.04-33.58,85.59-50.3
			c21.23-12.43,42.45-24.86,63.67-37.3c1.51-0.88,3.43-1.39,3.44-3.68C900.33,504.73,902.12,505.68,903.91,506.63z"/>
		<path class="st108" d="M552.11,424.15c1.57-3.68,5.38-3.07,8.16-3.72c34.32-8.04,68.71-15.81,103.07-23.67
			c6.96-1.59,13.86-3.48,20.86-4.82c2.59-0.49,4.32-0.95,4.07-3.95c3.14,1.75,6.29,3.5,9.43,5.26c-0.62,3.89-4.27,2.99-6.44,3.5
			c-42.01,9.74-84.08,19.19-126.09,28.93c-2.64,0.61-6.64-0.37-7.66,3.87c-1.33-0.96-2.65-1.93-3.98-2.9
			C553.05,425.81,552.58,424.98,552.11,424.15z"/>
		<path class="st109" d="M492.79,364.84c-1.33-0.95-2.66-1.9-3.99-2.86c-1.37-1.74-2.74-3.49-4.1-5.23
			c0.11-3.25,2.92-3.06,4.88-3.52c30.17-7.11,60.4-13.92,90.59-20.96c2-0.47,4-0.57,5.99,0.01c4.42,1.6,8.69,3.48,12.17,6.77
			c-1.67,2.17-4.25,2.35-6.61,2.9C558.75,349.66,525.68,356.86,492.79,364.84z"/>
		<path class="st110" d="M309.51,371.57c23.08-5.86,46.17-11.68,69.23-17.6c26.09-6.7,52.16-13.48,78.23-20.26
			c0.79-0.21,1.45-0.91,2.17-1.38c2.18-0.56,3.24,0.9,4.28,2.38c0.22,0.59,0.13,1.14-0.22,1.66c-6.82,4.67-14.96,5.38-22.64,7.38
			c-41.69,10.87-83.42,21.57-125.14,32.3c-1.92,0.49-3.94,0.62-5.92,0.92C309.51,375.16,309.51,373.36,309.51,371.57z"/>
		<path class="st111" d="M719.27,591.33c-0.39-0.04-0.78-0.09-1.17-0.13c-1.68-0.79-3.74-1.3-2.86-3.94
			c7.19-6.49,16-10.5,24.21-15.36c27.72-16.41,55.65-32.47,83.48-48.7c15.46-9.01,30.91-18.05,46.32-27.14
			c2.28-1.35,4.34-3.09,6.5-4.64c1.32,0.62,2.63,1.24,3.95,1.86c-1.47,5.07-6.58,5.77-10.19,7.91
			c-36.14,21.47-72.45,42.66-108.73,63.9c-11.77,6.89-23.63,13.64-35.39,20.56C722.96,587.05,719.89,587.93,719.27,591.33z"/>
		<path class="st112" d="M329.46,871.61c13.59-14.36,27.54-28.35,41.93-41.91c1.96,3.24,5.24,25.73,4.2,28.74
			c-11.76,7.07-23.14,15.09-37.77,14.81C334.95,873.2,332,873.39,329.46,871.61z"/>
		<path class="st113" d="M868.9,487.57c-23.81,14.13-47.56,28.36-71.44,42.37c-27.56,16.17-55.24,32.15-82.84,48.26
			c-1.71,1-3.19,2.41-4.77,3.63c-2.27,0.55-3.1-0.71-3.38-2.67c-0.38-4.53,3.61-5.39,6.29-6.95c24.62-14.39,49.17-28.89,73.79-43.29
			c22.87-13.37,45.76-26.72,68.62-40.11c2.7-1.58,5.23-3.52,8.41-4.14C865.73,484.94,867.27,486.35,868.9,487.57z"/>
		<path class="st114" d="M707.15,579.15c0.9,0.9,1.8,1.79,2.7,2.69c1.34,2.26,3.16,4.04,5.39,5.42c0.95,1.32,1.91,2.63,2.86,3.94
			c-3.41,2.83-0.49,5.9-0.08,8.68c1.91,12.76,3.39,25.59,5.32,38.35c1.36,8.99,3.3,18.16,2.75,27.45c-2.05,1.72-4.22,3.22-6.89,3.79
			c-5.18-3.2-2.99-8.83-3.69-13.14c-3.63-22.07-6.56-44.27-9.33-66.47c-0.43-3.46-2.29-7.18-0.17-10.78
			C706.42,578.51,706.8,578.5,707.15,579.15z"/>
		<path class="st115" d="M586.15,332.29c-16.79,5.18-34.14,8.03-51.13,12.36c-16.72,4.26-33.85,6.85-50.33,12.11
			c-1.78-1.4-3.55-2.8-5.33-4.2c-0.47-0.85-0.93-1.7-1.4-2.55c-0.17-2.56,1.94-2.78,3.55-3.16c29.55-7.06,59.14-13.97,88.81-20.51
			c1.52-0.34,3.12-0.14,4.66-0.44C578.85,327.75,583.05,329.06,586.15,332.29z"/>
		<path class="st116" d="M707.15,579.15c-0.38-0.02-0.77-0.04-1.15-0.06c-0.96-1.32-1.93-2.65-2.89-3.97
			c14.61-10.4,30.65-18.41,45.98-27.61c24.75-14.85,49.81-29.2,74.67-43.87c11.93-7.04,24.35-13.29,35.65-21.37
			c1.39,0.8,2.78,1.6,4.17,2.4c-7.55,7.14-17.14,11.09-25.89,16.29c-38.78,23.02-77.75,45.73-116.64,68.57
			C716.19,572.39,710.23,573.7,707.15,579.15z"/>
		<path class="st117" d="M422.59,778.43c1.61,11.69,2.39,23.45,5.92,34.91c1.45,4.7-1.31,10.36,1.01,15.43
			c-5.04,3.7-10.59,6.47-16.27,9.01c-5.13-2.27-3.25-7.78-3.71-11.11c-1.38-10.02-3.07-20.06-3.76-30.19
			c-0.04-0.65,0.29-1.29,0.63-1.88C411.42,788.84,416.8,783.42,422.59,778.43z"/>
		<path class="st118" d="M668.04,377.07c-0.44,3.67-3.81,2.82-5.82,3.3c-39.67,9.29-79.39,18.4-119.11,27.49
			c-1.91,0.44-4.23-0.12-4.48,2.81c-1.33-0.96-2.65-1.93-3.98-2.89c-0.47-0.83-0.94-1.67-1.41-2.5c6.06-4.58,13.6-4.75,20.51-6.42
			c26.59-6.42,53.35-12.1,79.97-18.37c9.22-2.17,18.84-2.95,27.48-7.34C663.47,374.46,665.75,375.77,668.04,377.07z"/>
		<path class="st119" d="M406.41,794.61c1.91,10.17,3.32,20.37,4.24,30.7c0.34,3.86,1.47,8.36,2.6,12.47
			c-6.29,3.52-12.59,7.04-18.88,10.56c-4.15-2.94-2.74-7.73-3.35-11.59c-1.06-6.71-2.47-13.37-3.23-20.13
			c-0.18-1.61,0.33-3.06,1.12-4.43C394.3,805.89,400.19,800.08,406.41,794.61z"/>
		<path class="st120" d="M462.92,738.16c3.2,7.16,2.91,14.99,4.22,22.51c2.52,14.51,3.1,29.32,6.77,43.65
			c-3.69,2.89-7.73,5.15-12.14,6.72c-1.85-5.49-2.38-11.22-2.3-16.92c0.07-4.51-1.32-8.76-2.06-13.02
			c-1.94-11.18-2.81-22.41-3.81-33.66C456.35,743.97,459.41,740.84,462.92,738.16z"/>
		<path class="st121" d="M309.54,238.08c-0.9-11.92,2.43-22.35,11.31-30.57c2.73-2.53,5.99-4.68,10.08-4.56
			c7.12,3.2,10.19,10.49,15.62,15.4c1.79,2.13,4.3,3.69,5.16,6.55c-0.46,3.16-3.22,3.5-5.47,4.15c-10.91,3.15-21.76,6.5-32.78,9.25
			C312.15,238.62,310.8,238.86,309.54,238.08z"/>
		<path class="st122" d="M437.56,310.77c-1.82-2.67-4.06-4.91-6.73-6.72c-0.02-0.4-0.05-0.79-0.08-1.19
			c-0.08-3.55,3.11-3.6,5.11-4.1c21.1-5.25,42.19-10.57,63.59-14.49c4.92,2.69,9.84,5.39,14.76,8.08c-0.27,2.7-2.62,2.9-4.43,3.33
			c-22.05,5.2-44.11,10.4-66.24,15.27c-1.57,0.35-3.12,0.12-4.68-0.04C438.43,310.88,437.99,310.83,437.56,310.77z"/>
		<path class="st123" d="M394.41,267.66c-2.68-3.62-5.83-6.76-9.43-9.46c-0.47-0.85-0.94-1.69-1.41-2.54
			c0.04-4.6,4.81-4.02,6.68-4.39c10.27-2.08,20.07-5.97,30.42-7.61c1.57-0.25,3.12-0.12,4.68-0.08c6.74,3.7,13.49,7.4,20.23,11.1
			c0.98,4.81-3.32,3.51-5.15,3.78c-13.24,2-25.85,6.62-38.95,9.13c-1.53,0.29-2.8,1.44-4.41,1.54
			C396.18,268.64,395.3,268.15,394.41,267.66z"/>
		<path class="st124" d="M411.95,285.16c-1.82-2.2-3.64-4.39-5.45-6.59c-0.43-2.68,1.86-2.74,3.34-3.09
			c17.26-4.13,34.36-8.96,51.93-11.72c5.25,2.15,10.22,4.79,14.84,8.1c3.4,2.93,0.44,3.7-1.64,4.14
			c-16.29,3.49-32.27,8.35-48.77,10.87c-3.1,0.47-6.07,1.22-8.91,2.49C415.51,287.96,413.73,286.56,411.95,285.16z"/>
		<path class="st125" d="M309.54,238.08c13.09-3.8,26.17-7.63,39.28-11.36c1.24-0.35,1.91-0.97,2.41-2.01
			c0.5-0.41,1.07-0.55,1.71-0.41c3.55,2.1,5.97,5.44,8.98,8.14c1.36,1.61,2.66,3.24,1.92,5.57c-1.24,2.48-3.66,3.1-6.03,3.72
			c-13.55,3.54-27.04,7.31-40.68,10.5c-2.58,0.6-5.23,1.44-7.6-0.65C309.54,247.08,309.54,242.58,309.54,238.08z"/>
		<path class="st126" d="M463.13,335.18c-1.33-0.95-2.66-1.9-3.99-2.85c-0.92-1.29-1.84-2.59-2.75-3.88
			c0.14-3.68,3.18-3.9,5.65-4.48c23.28-5.46,46.58-10.81,69.87-16.22c3.08-0.72,6.16-0.95,9.3-0.56c3.56,1.04,6.38,3.41,9.45,5.32
			c-0.09,2.96-2.51,3.57-4.57,4.07c-26.92,6.51-53.91,12.73-80.95,18.71C464.5,335.42,463.8,335.22,463.13,335.18z"/>
		<path class="st127" d="M631.58,356.94c-5.05,3.82-11.35,3.64-17.08,5.01c-31.37,7.48-62.84,14.53-94.29,21.66
			c-2.23,0.5-4.37,0.92-5.86,2.82c-2.23-1.37-4.04-3.16-5.38-5.41c0.84-4.42,4.84-4.16,7.81-4.84c29.2-6.69,58.4-13.43,87.61-20.08
			c3.93-0.89,7.84-1.82,11.74-2.83c3.15-0.82,6.19-0.81,9.15,0.65C627.74,354.16,629.6,355.67,631.58,356.94z"/>
		<path class="st128" d="M625.27,353.9c-16.59,2.31-32.65,7.05-48.95,10.72c-20.22,4.56-40.44,9.11-60.65,13.69
			c-2.36,0.54-4.85,0.84-6.71,2.69c-1.35-0.87-2.7-1.74-4.05-2.6c-0.44-0.52-0.88-1.03-1.31-1.55c0.61-3.91,4.27-2.99,6.44-3.5
			c32.07-7.51,64.23-14.68,96.31-22.16c2.67-0.62,6.59,0.3,7.76-3.79C618.04,349.21,622.17,350.67,625.27,353.9z"/>
		<path class="st129" d="M547.11,764.09c-5.08-3.66-3.33-9.6-4.04-14.31c-3.75-24.83-6.64-49.79-9.89-74.7
			c-0.26-1.98-0.91-3.9-1.38-5.85c2.24-2.24,4.49-4.48,6.73-6.73c4.09,30.11,8.17,60.23,12.27,90.34c0.39,2.86,0.91,5.7,1.36,8.54
			C550.82,762.93,549.03,763.63,547.11,764.09z"/>
		<path class="st130" d="M796.03,447.34c-31.24,18.36-62.49,36.72-93.7,55.12c-1.33,0.79-2.35,1.28-3.33-0.3
			c-0.53-2.64,1.37-4.13,2.94-5.53c5.71-5.09,9.89-11.91,17.1-15.32c5.47-0.9,9.77-4.33,14.31-7.04
			c15.92-9.5,32.07-18.61,47.93-28.2c2.11-1.28,4.3-2.38,6.72-2.93C790.68,444.53,793.36,445.94,796.03,447.34z"/>
		<path class="st131" d="M461.77,263.76c-6.62,4.18-14.51,3.79-21.72,5.89c-11.1,3.24-22.72,4.58-33.55,8.92
			c-1.33-0.95-2.66-1.9-3.99-2.85c-1.81-2.2-3.63-4.39-5.44-6.59c4-5.78,10.88-4.07,16.32-5.84c9.7-3.16,19.9-4.79,29.91-6.96
			c1.12-0.24,2.3,0,2.29-1.64C451.29,257.16,456.67,260.19,461.77,263.76z"/>
		<path class="st132" d="M309.54,251.58c14.52-2.2,28.51-6.56,42.59-10.5c3.89-1.09,8.6-0.28,11.29-4.46c5,0.33,6.89,4.57,9.68,7.69
			c0.22,0.62,0.13,1.2-0.23,1.75c-5.11,4.65-11.92,4.6-18.04,6.26c-15.02,4.08-30.19,7.63-45.3,11.39
			C309.53,259.67,309.53,255.63,309.54,251.58z"/>
		<path class="st133" d="M499.45,284.28c-8.04,4.65-17.37,4.51-26.01,6.99c-13.39,3.85-27.35,5.48-40.53,10.21
			c-0.79,0.28-1.45,0.92-2.17,1.39c-3.12-2.28-5.86-4.94-8.06-8.13c-0.4-3.44,2.31-4.1,4.58-4.64c18.21-4.31,36.45-8.47,54.68-12.69
			c1.78-0.41,3.54,0.19,5.32,0.16C491.33,279.8,495.39,282.04,499.45,284.28z"/>
		<path class="st134" d="M676.13,548.19c0.92,1.28,1.83,2.57,2.75,3.85c2.03,15.39,4.03,30.78,6.08,46.17
			c2.43,18.25,4.87,36.5,7.36,54.75c1.32,9.67,2.75,19.33,4.13,29c-1.11,1.3-2.42,2.24-4.2,2.33c-4.04-0.85-3.18-4.41-3.56-6.98
			c-5.11-35.01-9.73-70.1-14.55-105.15c-0.73-5.33-1.57-10.64-2.25-15.97c-0.42-3.29-1.11-6.73,1.59-9.54
			C674.37,547.17,675.25,547.68,676.13,548.19z"/>
		<path class="st135" d="M738.15,612.97c0.45-0.17,0.9-0.33,1.35-0.5c0.9,0.57,1.8,1.14,2.7,1.72c1.36,2.24,3.12,4.08,5.38,5.44
			c1.81,2.68,4.04,4.94,6.74,6.73c1.37,2.22,3.15,4.04,5.4,5.38c2.25,3.14,4.93,5.85,8.09,8.08c0.44,0.83,0.89,1.65,1.33,2.48
			c-9.41,5.09-18.82,10.19-28.23,15.28c-0.53-2.76-3.38-5.5-0.08-8.29c-0.06-3.22,1.43-6.22,1.35-9.44
			c-0.88-3.07-5.71-2.88-5.44-7.51c0.14-2.41-0.07-4.45,1.29-6.63c1.21-1.94,4.78-4.13-0.97-5.93
			C734.44,618.95,739.59,615.66,738.15,612.97z"/>
		<path class="st136" d="M444.33,317.49c-0.02-0.39-0.05-0.79-0.08-1.18c-0.06-3.13,2.61-3.53,4.58-3.96
			c24.1-5.29,47.93-11.78,72.23-16.15c3.6,1.88,7.19,3.76,10.79,5.64c1.45,3-1.11,3.68-2.83,4.07
			c-25.77,5.82-51.3,12.72-77.37,17.18c-0.88,0.15,0.23-0.04-0.67-0.02C448.76,321.21,446.54,319.35,444.33,317.49z"/>
		<path class="st137" d="M673.49,546.66c0.48,16.93,4.04,33.49,6.12,50.22c2.27,18.28,4.66,36.55,7.39,54.77
			c1.63,10.9,2.31,21.96,5.25,32.65c-1.5,1.43-3.17,2.57-5.28,2.88c-2-15.23-3.98-30.46-6.02-45.68
			c-2.48-18.53-4.98-37.05-7.54-55.57c-1.58-11.46-3.32-22.9-4.92-34.36c-0.42-3.02-1.57-6.19,1.04-8.88
			C670.86,544.01,672.17,545.33,673.49,546.66z"/>
		<path class="st138" d="M492.79,364.84c2.42-4.95,7.63-3.92,11.57-4.86c29.49-6.98,59.08-13.57,88.64-20.24
			c1.73-0.39,3.54-0.46,5.31-0.68c2.46,0.28,4.32,1.8,6.29,3.07c-5.07,3.76-11.36,3.61-17.09,4.99
			c-29.2,7.04-58.51,13.61-87.77,20.39c-1.02,0.24-1.94,0.9-2.91,1.36c-1.32-0.95-2.65-1.91-3.97-2.86
			C492.84,365.62,492.82,365.23,492.79,364.84z"/>
		<path class="st139" d="M388.91,812.19c1.82,12.05,3.64,24.1,5.46,36.15c-6.19,3.49-12.12,7.47-18.78,10.09
			c-1.08-4.37-0.46-9.27-3.98-12.89c-0.68-0.7-0.97-1.47-0.42-2.37c2.74-4.45,0.67-8.97,0.2-13.47
			C376.83,823.46,382.66,817.62,388.91,812.19z"/>
		<path class="st140" d="M788,443.13c-7.8,6.81-17.34,10.84-26.05,16.19c-12.38,7.6-24.99,14.82-37.56,22.1
			c-1.49,0.86-3.18,3.11-5.17,0.53c-0.49-1.37,0.21-2.41,0.95-3.43c2.46-2.72,5.15-5.24,7.69-7.89c3.25-3.12,6.42-6.33,9.57-9.56
			c2.29-2.01,4.08-4.71,7.36-5.37c10.09-3.07,17.89-10.33,27.22-14.81c2.17-1.04,4.08-2.64,6.54-3.08
			C781.95,439.13,785.13,440.85,788,443.13z"/>
		<path class="st141" d="M615.63,726.47c-2.68-8.09-2.9-16.6-4.12-24.92c-2.65-18.03-4.76-36.13-7.25-54.19
			c-2.03-14.74-4.28-29.46-6.43-44.18c0.02-0.37,0.06-0.73,0.1-1.1c1.77-1.43,3.53-2.86,5.3-4.29c0.48,17.39,4.13,34.4,6.25,51.59
			c2.25,18.29,4.68,36.56,7.44,54.78c0.98,6.48,0.39,13.36,4.02,19.31C619.51,725.07,617.7,726.01,615.63,726.47z"/>
		<path class="st142" d="M574.97,325.9c-6.64,4.04-14.4,4.45-21.66,6.22c-24.7,6.02-49.57,11.38-74.37,17.02
			c-0.38,0.09-0.66,0.57-0.99,0.87c-1.79-0.91-3.13-2.26-4.04-4.05c-1.51-4.96,2.82-4.28,5.13-4.88
			c16.27-4.16,32.7-7.68,49.05-11.53c9.59-2.26,19.23-4.32,28.79-6.69c3.75-0.93,7.44-1.5,11.26-0.83
			C570.42,323.32,572.69,324.61,574.97,325.9z"/>
		<path class="st143" d="M568.15,322.03c-30.13,7.07-60.26,14.15-90.41,21.14c-1.83,0.42-3.63,0.34-3.82,2.78
			c-1.33-0.95-2.66-1.9-3.99-2.85c-0.47-0.84-0.94-1.68-1.41-2.52c-0.02-4.61,3.87-4.31,6.64-4.99c21.11-5.12,42.31-9.8,63.5-14.55
			c6.73-1.51,13.26-4.29,20.37-3.73C562.07,318.88,565.11,320.46,568.15,322.03z"/>
		<path class="st144" d="M559.04,317.31c-12.25,4.82-25.32,6.49-38,9.63c-16.44,4.07-33.06,7.41-49.6,11.07
			c-1.41,0.31-2.32,1.28-2.92,2.57c-1.77-1.41-3.54-2.81-5.31-4.22c-0.02-0.4-0.04-0.79-0.07-1.18c11.19-5.3,23.54-6.3,35.33-9.32
			c15.95-4.08,32.11-7.39,48.15-11.13c1.44-0.34,2.7-1.47,4.04-2.23C553.65,313.74,556.76,314.81,559.04,317.31z"/>
		<path class="st145" d="M372.87,246.06c-0.02-0.4-0.05-0.8-0.07-1.2c0.46-4.21,4.26-4.23,6.92-4.87
			c9.31-2.23,18.56-4.85,28.13-5.89c6.16,2.56,11.9,5.89,17.51,9.47c-10.72,3.26-21.5,6.22-32.55,8.26
			c-3.2,0.59-6.16,2.51-9.23,3.83C380.01,252.46,376.44,249.26,372.87,246.06z"/>
		<path class="st146" d="M450.98,323.06c7.87-3.81,16.53-4.71,24.88-6.71c17.49-4.19,35.04-8.1,52.58-12.06
			c1.58-0.36,3.15-0.4,3.42-2.45c3.12,1.78,6.23,3.56,9.35,5.35c-22.43,5.28-44.9,10.39-67.25,15.97
			c-5.9,1.47-12.47,1.06-17.57,5.29c-1.78-1.39-3.55-2.78-5.33-4.18C451.03,323.86,451.01,323.46,450.98,323.06z"/>
		<path class="st147" d="M407.85,234.11c-6.64,4.02-14.43,3.9-21.64,5.88c-4.65,1.27-9.4,1.97-13.41,4.88
			c-3.12-2.75-6.25-5.49-9.37-8.24c-0.91-1.31-1.83-2.61-2.74-3.92c-0.59-3.37,1.81-3.96,4.23-4.71c7.85-2.42,16-3.17,24.06-4.43
			C395.26,227.08,401.55,230.6,407.85,234.11z"/>
		<path class="st148" d="M521.06,296.2c-8.63,5.08-18.63,5.35-27.98,7.8c-13.94,3.65-28.11,6.42-42.16,9.62
			c-2.35,0.53-4.84,0.83-6.67,2.7c-2.26-1.34-4.04-3.16-5.38-5.4c14.28-4.85,29.21-7.06,43.77-10.77
			c10.5-2.68,21.05-5.19,31.57-7.78C516.81,293.08,519,294.53,521.06,296.2z"/>
		<path class="st149" d="M487.27,277.57c-17.93,5.33-36.36,8.58-54.46,13.15c-3.51,0.89-7.79,0.07-10.12,4.01
			c-0.44-0.03-0.87-0.08-1.3-0.14c-1.37-1.74-2.73-3.48-4.1-5.22c1.06-1.66,1.91-3.09,4.41-3.42c17.96-2.37,35.25-7.93,53-11.34
			c1.92-0.37,3.03-0.59,1.92-2.74C480.55,273.03,483.84,275.43,487.27,277.57z"/>
		<path class="st150" d="M345.86,219.2c-5.74-4.71-9.84-10.93-14.93-16.25c13.31-4.08,24.4,1.31,35.12,8.23
			c0.16,2.86-2.18,2.23-3.7,2.54C356.63,214.89,351,216.3,345.86,219.2z"/>
		<path class="st151" d="M388.97,223.57c-2.07,2.72-5.67,3.09-8.12,2.86c-6.1-0.57-11.13,3.49-17.09,3.08
			c-0.95-0.07-2.05,2.08-3.08,3.2c-3.21-2.19-5.88-4.9-8.09-8.09c-0.57-2.48,1.45-3.11,2.98-3.54c6.95-1.97,13.8-4.52,21.21-4.26
			C380.84,219.07,384.9,221.32,388.97,223.57z"/>
		<path class="st152" d="M778.55,437.8c-9.4,7.9-20.82,12.56-30.94,19.3c-1.12,0.75-2.1,0.34-2.78-0.79
			c-0.5-2.95,2.01-4.18,3.43-6.04c3.73-3.41,6.8-7.61,11.46-9.95c3.22-2.22,5.86-5.02,8.21-8.13
			C771.96,433.13,775.07,435.82,778.55,437.8z"/>
		<path class="st153" d="M376.77,216.82c-6.11,1.69-12.2,3.48-18.35,5c-2.2,0.54-4.33,0.93-5.83,2.8c-0.45,0.03-0.9,0.06-1.36,0.09
			c-2.18-1.46-4.1-3.17-5.37-5.51c4.15-6.36,11.14-5.64,17.32-6.84c1.11-0.21,2.19-0.1,2.87-1.18
			C369.63,213.06,373.2,214.94,376.77,216.82z"/>
		<path class="st154" d="M720.63,479.43c-0.47,0.84-0.94,1.68-1.41,2.52c-7.18,6.3-13.91,13.04-20.22,20.21
			c-8.97,8.11-17.51,16.65-25.61,25.62c-3.18,2.75-6.36,5.5-9.54,8.25c-2.17-1.87-4.34-3.74-6.51-5.61
			c-1.35-1.35-2.7-2.69-4.05-4.04c-2.75-3.54-5.9-6.68-9.43-9.43c-0.9-0.9-1.8-1.79-2.7-2.69c-1.85-2.64-4.11-4.88-6.74-6.74
			c-1.35-1.35-2.69-2.7-4.04-4.05c-0.47-0.82-0.95-1.65-1.42-2.47c-1.21-5.08,3.19-4.67,5.71-5.25
			c18.38-4.27,36.74-8.61,55.14-12.78c8.11-1.84,16.14-3.98,24.32-5.48C716.44,477.05,719.49,475.4,720.63,479.43z"/>
		<path class="st155" d="M720.63,479.43c-5.41-2.41-10.32,0.85-15.2,1.88c-23.47,4.92-46.8,10.5-70.12,16.11
			c-2.17,0.52-5.84-0.39-6.35,3.57c-1.77-1.42-3.53-2.84-5.3-4.27c-0.03-0.38-0.06-0.75-0.1-1.13c-0.04-4.51,3.77-4.52,6.56-5.17
			c22.63-5.27,45.31-10.31,67.95-15.56c8.05-1.87,16.05-3.99,24.18-5.48c2.31-0.42,5.34-2.06,6.47,1.95
			C726.5,474.5,723.8,477.2,720.63,479.43z"/>
		<path class="st156" d="M748.94,451.11c-1.37,1.74-2.74,3.48-4.1,5.21c-2.23,1.86-4.45,3.71-6.68,5.57
			c-4.63,3.09-10.11,3.48-15.3,4.71c-32,7.61-64.09,14.8-96.11,22.31c-2.81,0.66-5.62,1.55-8.59,1.3c-2.21-1.87-4.43-3.75-6.64-5.62
			c-0.03-0.38-0.06-0.75-0.1-1.12c0.54-4.61,4.58-4.43,7.56-5.11c34.9-7.95,69.7-16.32,104.66-24c5.9-1.3,11.69-3.06,17.66-4.05
			C743.9,449.88,746.6,448.89,748.94,451.11z"/>
		<path class="st157" d="M618.16,490.22c6.52-4.3,14.3-4.6,21.52-6.36c28.58-6.95,57.31-13.29,86-19.78
			c4.11-0.93,8.31-1.47,12.47-2.18c-2.66,3.63-5.81,6.77-9.44,9.44c-5.2-2.72-9.92,0.77-14.55,1.76
			c-28.43,6.12-56.71,12.97-85.05,19.52c-2.17,0.5-4.54,0.41-5.56,2.98c-1.77-1.42-3.53-2.84-5.3-4.26
			C618.23,490.96,618.2,490.59,618.16,490.22z"/>
		<path class="st158" d="M748.94,451.11c-16.76,2.5-33.08,7.04-49.58,10.77c-27.37,6.2-54.7,12.56-82.06,18.78
			c-2.23,0.51-4.37,0.91-5.88,2.81c-1.32-0.98-2.64-1.95-3.97-2.93c-0.92-1.28-1.84-2.55-2.77-3.83c4.2-3.98,9.91-3.87,14.96-5.05
			c38.36-9,76.79-17.76,115.25-26.31c8.23-1.83,16.21-5.03,24.81-5.03C756.61,444.4,753.01,447.99,748.94,451.11z"/>
		<path class="st159" d="M742.19,639.84c3.52,3.71,0.49,6.49-1.35,9.44C737.48,645.59,737.61,642.4,742.19,639.84z"/>
	</g>
</g>
<g id="Layer_4">
	<g>
		<g id="_x23_fafafaff_1_">
			<path class="st160" d="M1063.08,318.63c6.58-0.12,13.17-0.42,19.72,0.12c7.42,23.29,16.17,46.17,23.54,69.52
				c-5.8-0.03-11.57-0.03-17.37,0.03c-1.38-6.7-3.13-13.29-4.72-19.9c-8.54,0-17.07,0-25.61,0c-1.59,6.61-3.34,13.17-4.72,19.81
				c-5.44,0-10.88,0.03-16.29,0.06C1045.5,364.86,1055.9,342.31,1063.08,318.63 M1071.23,327.8c-2.8,10.22-6.13,20.32-9.8,30.27
				c6.58-0.03,13.17-0.06,19.78,0.03C1077.63,348.08,1074.86,337.78,1071.23,327.8z"/>
			<path class="st160" d="M1118.03,318.39c4.84,0.06,9.71,0.09,14.55,0.06c9.53,17.28,21.91,32.82,30.57,50.62
				c-0.36-16.86-0.75-33.72-1.56-50.56c4.57,0,9.17,0.03,13.74,0.06c-1.5,23.29-0.93,46.62-0.18,69.91
				c-4.33-0.21-8.72-0.06-13.01-0.72c-11.27-17.73-23.93-34.6-34-53.11c3.4,17.7,1.71,35.8,1.98,53.71c-4,0-7.97,0-11.93,0.06
				C1118,365.1,1118.27,341.74,1118.03,318.39z"/>
			<path class="st160" d="M1193.56,318.51c16.11,0.54,34.54-3.46,48.36,7.18c17.91,15.9,12.44,48.18-8.18,59.18
				c-12.5,6.25-26.84,3.64-40.22,3.43C1194.52,365.04,1194.67,341.77,1193.56,318.51 M1207.54,329.24
				c0.87,16.05,0.75,32.16,0.78,48.24c6.22-0.54,13.35,1.53,18.79-2.37c15.12-9.14,14.97-34.78-0.57-43.43
				C1220.85,328.1,1213.82,329.66,1207.54,329.24z"/>
			<path class="st160" d="M1268.43,318.39c16.08,1.29,35.62-4.75,48.3,8.36c4.15,11.66-2.28,22.57-12.56,28.01
				c12.71,6.01,14.73,22.06,20.14,33.69c-5.26-0.15-10.52-0.21-15.75-0.27c-3.13-8.6-5.56-17.73-10.94-25.28
				c-4.63-2.83-10.16-2.55-15.3-3.04c0.03,9.44,0.27,18.85,0.6,28.28c-4.81,0.09-9.62,0.18-14.4,0.33
				C1268.28,365.1,1268.46,341.74,1268.43,318.39 M1281.54,328.94c0.42,7.24,0.66,14.49,0.72,21.73c6.22-0.66,13.89,1.38,18.7-3.91
				c5.89-4.42,4.36-14.28-2.25-17.1C1293.11,327.98,1287.22,328.76,1281.54,328.94z"/>
			<path class="st160" d="M1356.62,318.75c17.01-6.37,37.18,3.52,42.71,20.74c3.79,13.59,1.8,29.64-8.33,40.13
				c-13.14,14.52-39.47,13.95-51.04-2.22C1325.78,358.42,1333.57,326.68,1356.62,318.75 M1359.57,329.3
				c-10.01,7.72-14.64,21.22-10.52,33.36c2.58,11.21,15.51,19.66,26.42,13.68c13.83-9.11,14.34-31.77,3.19-43.19
				C1373.61,327.92,1366.09,328.94,1359.57,329.3z"/>
			<path class="st160" d="M1416.11,318.45c5.05,0.06,10.13,0.12,15.18,0.12c-0.84,23.17-0.84,46.41,0.06,69.55
				c-5.08,0.03-10.16,0.09-15.21,0.18C1417.16,365.04,1417.34,341.71,1416.11,318.45z"/>
			<path class="st160" d="M1450.19,318.54c15.81,0.63,34.12-3.61,47.61,6.91c19.45,16.08,12.62,50.92-10.04,60.51
				c-11.96,4.9-25.07,2.52-37.57,2.31C1451.3,365.04,1451.46,341.74,1450.19,318.54 M1463.78,329.27
				c0.39,16.02,0.45,32.07,0.9,48.09c7.45,0.03,15.87,1.32,21.91-4.09c11.51-10.85,10.88-33.78-3.76-41.63
				C1477.18,327.92,1470.09,329.72,1463.78,329.27z"/>
			<path class="st160" d="M1569.85,318.33c6.43,0.18,12.86,0.18,19.33,0.09c6.82,23.63,16.74,46.26,23.17,70.03
				c-5.68-0.15-11.36-0.27-17.01-0.36c-1.53-6.61-3.13-13.26-5.17-19.72c-8.27,0.06-16.5,0.06-24.71,0
				c-2.07,6.58-3.88,13.26-5.71,19.93c-5.17-0.03-10.31,0-15.45,0.03C1551.7,364.59,1562.28,341.98,1569.85,318.33 M1577.28,328.79
				c-2.86,9.83-6.13,19.51-8.99,29.34c6.4-0.09,12.77-0.06,19.21,0C1583.77,348.48,1582.3,337.87,1577.28,328.79z"/>
			<path class="st160" d="M1623.68,318.54c17.01,1.02,39.47-5.68,50.77,11.33c-0.36,6.97,1.29,14.91-3.73,20.62
				c-7.63,9.8-21.1,11.3-32.61,11.69c0,8.72,0.24,17.43,0.6,26.15c-5.05-0.06-10.07-0.12-15.09-0.18
				C1624.86,364.98,1624.86,341.74,1623.68,318.54 M1638.02,328.88c0.12,7.94,0.09,15.87,0.39,23.81
				c9.02-0.45,23.35-1.74,22.69-13.95C1659.84,327.25,1646.62,327.98,1638.02,328.88z"/>
			<path class="st160" d="M1798.8,319.05c18.88-7.78,42.41,5.29,44.73,25.79c4.93,20.98-11.24,46.2-34,45.03
				c-20.74,1.71-36.91-20.11-33.24-39.71C1776.92,336.66,1786.03,323.74,1798.8,319.05 M1795.46,370.12
				c4.45,7.91,14.16,8.75,22.24,7.45c9.29-7.51,14.16-19.84,10.85-31.59c-1.92-11.18-13.5-20.77-24.98-16.29
				C1789.06,336.51,1787.5,357.73,1795.46,370.12z"/>
			<path class="st160" d="M1903.22,318.57c4.57-0.03,9.17-0.03,13.77-0.06c-1.35,23.2-1.17,46.5,0.03,69.7
				c-4.33,0-8.63,0.03-12.89,0.06c-11-18.24-24.32-34.99-34.24-53.92c2.95,17.82,1.92,35.95,2.8,53.95
				c-4.45-0.03-8.87-0.06-13.26-0.03c1.2-23.23,1.38-46.56,0-69.79c5.08,0.03,10.22,0.06,15.33,0.06
				c9.32,17.43,21.4,33.21,30.81,50.65C1903.85,352.35,1904.36,335.43,1903.22,318.57z"/>
			<path class="st160" d="M1688.28,318.48c14.46,0.99,30.18-3.37,43.49,4.09c10.19,6.31,8.9,21.76,1.89,30
				c-8.39,7.72-20.38,9.26-31.26,9.71c0.27,8.63,0.57,17.28,0.93,25.91c-5.02,0.03-10.04,0.09-15.06,0.12
				C1689.33,365.04,1689.48,341.74,1688.28,318.48 M1701.65,329.03c0.57,7.81,0.78,15.66,0.99,23.47c8.3-0.27,17.31-1.08,22.72-8.27
				c-0.03-2.19-0.06-6.58-0.09-8.78c-1.92-2.04-3.85-4.09-5.71-6.13C1713.59,328.61,1707.61,328.49,1701.65,329.03z"/>
			<path class="st160" d="M1849.75,447.7c16.2-1.11,32.46,0.48,48.66-0.99c-7.09,5.29-15.81,11.03-15,21.16
				c-0.69,54.98-0.09,110.01-0.3,165.02c0.33,14.91-1.02,29.94,1.35,44.76c9.14,5.11,20.02,3.76,30.06,5.02
				c-5.53,3.49-10.91,8.57-17.91,7.69c-18.52,0.12-37.03-0.24-55.55,0.15c3.85-5.71,9.44-11.27,8.87-18.73
				c0.06-70.7,0-141.36,0.03-212.06c-8.66,0.06-17.28,0.27-25.94,0.3C1832.37,455.51,1840.82,451,1849.75,447.7z"/>
			<path class="st160" d="M1104.44,472.07c28.95-15.63,62.88-19.03,95.19-15.63c26.36,3.55,53.14,10.82,74.78,26.93
				c-6.52,8.75-15.93,15.84-23.75,23.81c-4.03,4.81-10.52,5.26-16.23,6.34c2.86-4.57,5.71-9.14,8.54-13.74
				c-18.31-19.27-43.73-32.19-70.61-32.25c-31.08-1.26-63.36,13.2-80.64,39.56c-31.32,46.38-20.65,113.5,18.09,152.36
				c32.34,34.18,86.17,44.18,129.49,26.96c0.39-18.7,0.18-37.42,0.15-56.15c-16.92,1.2-33.81,3.01-50.77,2.62
				c8.81-5.05,17.82-9.68,26.72-14.55c24.26-0.03,48.51,0.42,72.77-0.3c-4.48,5.56-12.74,9.62-12.68,17.67
				c-1.05,18.43-0.48,36.94-0.39,55.4c-42.47,10.28-86.15,21.16-130.15,15.75c-32.43-4.24-64.26-20.38-83.32-47.49
				c-20.89-28.8-29.28-66.76-21.61-101.56C1047.09,521.4,1071.68,489.24,1104.44,472.07z"/>
			<path class="st160" d="M2350.48,465.61c8.06,0.21,16.11,0.21,24.2,0c0.27,77.79,0.06,155.55,0.12,233.31
				c-8.15-0.24-16.26-0.24-24.38,0C2350.48,621.16,2350.36,543.4,2350.48,465.61z"/>
			<path class="st160" d="M2060.27,532.58c8.18-0.3,16.65,1.41,24.65-0.81c4.18,6.19,5.35,13.8,9.02,20.29
				c1.2-6.25,3.37-12.26,4.96-18.43c1.2-0.39,3.55-1.2,4.72-1.59c0.36,8.57,0.51,17.16,0.42,25.73h-3.01
				c-0.03-5.68-0.03-11.36,0-17.04l-2.31-0.06c-0.96,6.22-2.8,12.23-4.54,18.24c-3.79-4.24-5.17-9.83-5.86-15.27l-3.19-0.3
				c0.18,5.17,0.24,10.34,0.21,15.51c-7.15-6.25,1.89-28.37-14.37-23.63c-0.03,7.51,0,15.03,0,22.54h-3.01
				c-0.03-7.48-0.03-14.97,0-22.42c-1.98-0.03-5.92-0.06-7.91-0.06C2060.12,534.59,2060.24,533.27,2060.27,532.58z"/>
			<path class="st160" d="M2196.28,557.53c22.75-32.76,76.8-35.14,102.44-4.81c16.08,19.72,19.54,46.53,18.7,71.18
				c-1.32,23.26-7.78,48.39-26.48,63.87c-27.5,21.88-72.68,17.82-94.2-10.67c0.72,31.26,0.42,63.3,0.48,94.86
				c-8.12-0.06-16.26-0.06-24.38,0c0.06-79.23-0.03-158.43,0.06-237.67c6.7,0.15,13.47,0.18,20.23,0.27
				C2194.06,542.23,2194.96,549.92,2196.28,557.53 M2231.93,553.95c-14.46,1.86-26.45,12.83-30.24,26.81
				c-6.58,23.69-6.13,49.5,0.96,73.01c9.29,30.54,56.36,36.91,75.05,11.96c12.2-14.97,14.04-35.32,13.71-53.89
				c-0.45-16.95-3.67-35.56-16.5-47.79C2264.09,552.57,2246.63,550.82,2231.93,553.95z"/>
			<path class="st160" d="M1370.72,534.47c20.86-3.52,43.4-1.98,61.92,9.08c26,14.7,41.48,45,39.8,74.6
				c-1.56,18.37-8.6,36.55-21.19,50.2c-29.7,34.12-87.14,37.72-121.64,8.93c-23.29-19.99-34.15-53.92-25.13-83.5
				C1312.71,563.33,1340.09,540.24,1370.72,534.47 M1369.49,544.84c-16.68,4.18-30.27,18.37-33.36,35.35
				c-4.12,20.77,0.18,42.35,6.97,62.1c6.67,17.52,17.79,35.8,36.61,41.9c15.78,5.56,34.24,0.18,45.63-11.75
				c10.91-12.29,13.68-29.43,13.01-45.33c-1.2-22.93-7.12-46.29-20.83-65.04C1407,547.43,1387.04,539.1,1369.49,544.84z"/>
			<path class="st160" d="M1552.51,535.49c22.9-5.23,48.51-3.49,68.65,9.53c24.68,14.94,38.83,44.37,37.33,72.89
				c-1.44,18.46-8.45,36.67-21.04,50.41c-31.56,36.28-94.89,38.2-127.89,2.95c-19.12-20.29-26.87-50.71-18.97-77.55
				C1498.43,564.83,1523.62,542.32,1552.51,535.49 M1555.66,544.81c-18.27,4.51-32.28,21.07-34.3,39.71
				c-2.37,26.99,3.46,55.31,18.18,78.24c8.09,13.35,22.51,23.05,38.29,23.69c15.27,0.12,31.02-7.51,38.65-21.07
				c9.77-16.11,8.66-35.98,6.4-53.95c-2.98-18.15-9.02-36.31-20.5-50.92C1591.7,546.86,1572.56,539.31,1555.66,544.81z"/>
			<path class="st160" d="M1932.68,557.71c21.28-22.63,56.75-31.53,85.72-19.48c15.96,6.64,26.72,21.49,32.1,37.51
				c-26.33,11-52.9,21.49-79.38,32.16c-9.23,1.74-18.82,1.38-28.07,3.07c5.26,25.85,19.96,51.79,45,62.76
				c21.37,10.19,46.23,4.99,66.37-5.59c-10.79,12.29-24.17,23.14-40.49,26.66c-21.58,4.12-45.81,3.4-64.47-9.5
				C1908.78,658.61,1898.62,593.63,1932.68,557.71 M1960.96,550.31c-19.84,12.41-20.92,38.56-18.58,59.45
				c22.36-9.77,44.88-19.21,67.15-29.16c8.09-2.68,5.74-12.74,2.52-18.4C2002.59,544.42,1977.37,538.41,1960.96,550.31z"/>
			<path class="st160" d="M2422.98,546.13c26.75-14.04,60.06-19.57,88.73-8.21c18.64,7.21,25.07,28.77,25.16,47.04
				c0,37.93-0.03,75.84,0,113.77c-6.16,0-12.29,0.03-18.43,0.15c-2.04-7.91-3.16-16.02-5.47-23.81
				c-8.78,8.42-16.95,18.67-29.16,22.45c-18.97,5.92-40.97,6.34-58.58-3.79c-26.93-16.02-27.89-61.05-1.26-77.94
				c26.39-16.62,59.03-13.98,88.88-15.81c0.12-15.6-0.18-35.83-16.29-43.91c-21.58-9.23-45.03,0.06-65.35,8.24
				C2427.81,558.58,2425.8,552.15,2422.98,546.13 M2464.27,621.19c-10.19,1.8-20.98,5.11-27.56,13.62
				c-6.7,7.72-6.31,18.88-4.66,28.34c3.13,11.45,15.24,17.67,26.45,17.85c16.53,1.2,34.87-4.18,44.73-18.31
				c9.71-12.77,8.57-29.64,8.9-44.79C2496.11,618.03,2480.08,618.78,2464.27,621.19z"/>
			<path class="st160" d="M2551.17,534.29c8.84,0.18,17.7,0.21,26.57,0.12c12.29,31.92,24.62,63.81,36.85,95.76
				c5.23,14.94,11.27,29.79,13.71,45.54c16.59-47.19,33.15-94.5,50.56-141.42c8.9,0.24,17.79,0.21,26.72,0
				c-24.11,63-47.73,126.15-71.78,189.18c-6.37,16.29-15.36,32.91-30.93,42.05c-15,8.66-33.21,6.79-49.63,4.36
				c-0.06-6.61-0.12-13.26-0.24-19.87c13.1,1.17,28.22,3.91,39.47-4.9c14.7-10.82,17.79-30.09,25.13-45.72
				C2595.24,644.45,2573.05,589.42,2551.17,534.29z"/>
			<path class="st160" d="M1704.39,552.15c15.66-10.85,35.08-14.34,53.8-14.76c24.29-0.24,48.6,0.15,72.89-0.3
				c-7.15,4.48-14.28,9.14-22.12,12.35c-7.03,0.9-14.1,0.06-21.1-0.36c9.2,9.32,19.39,18.85,22.36,32.19
				c5.32,17.07,0.99,37.06-11.66,49.87c-7.57,8.57-18.4,14.37-23.87,24.68c-3.52,6.49,0.18,14.19,5.44,18.43
				c13.59,11.33,29.37,21.16,38.32,36.94c10.49,19.15,5.32,44.21-9.62,59.54c-18.61,20.56-47.7,28.19-74.6,27.71
				c-21.19,0.69-43.7-3.82-60.33-17.73c-11.15-10.07-17.79-26.48-13.08-41.24c4.15-16.65,17.94-29.04,33.15-35.86
				c18.09-8.03,38.11-10.49,57.74-11.27c-9.29-9.83-13.68-24.32-7.39-37c-22.84,3.94-49.11-5.32-60.48-26.39
				C1668.47,603.24,1679.71,567.66,1704.39,552.15 M1729.43,550.22c-12.2,3.76-21.25,15.45-22.06,28.16
				c-1.59,21.52,4.75,45.09,21.19,59.9c10.25,9.95,27.11,10.61,38.92,3.1c11.66-5.98,15.36-20.44,14.61-32.58
				c-1.8-18.34-7.48-37.6-21.25-50.59C1752.81,550.25,1740.31,546.13,1729.43,550.22 M1704.66,714.58
				c-13.23,8.51-19.06,26.84-12.23,41.21c7.91,18.52,29.19,26.69,48.03,27.98c18.64,1.56,40.7-0.24,53.32-15.93
				c7.27-7.94,8-19.48,6.04-29.55c-6.07-16.92-22.93-25.82-36.31-36.25C1743.43,701.5,1721.76,703,1704.66,714.58z"/>
		</g>
	</g>
</g>
</svg>
